*Timestamp,T_out[C],RH_out[%],DP_out[C],DP_in[C],P_def[W],P_glass[W],P_frame[W]
2018-06-01 00:30,19.5,70,13.90,9.00,27.50,55.00,12.22
2018-06-01 01:00,19.1,71,13.70,8.60,27.50,54.15,11.78
2018-06-01 01:30,18.8,72,13.60,8.40,27.50,50.69,11.55
2018-06-01 02:00,18.5,74,13.80,8.00,27.50,44.04,11.11
2018-06-01 02:30,18.1,76,13.80,8.60,27.50,54.15,11.78
2018-06-01 03:00,17.7,79,14.00,8.60,27.50,54.15,11.78
2018-06-01 03:30,17.5,81,14.20,8.30,27.50,49.00,11.44
2018-06-01 04:00,17.2,83,14.30,8.50,27.50,52.41,11.67
2018-06-01 04:30,16.9,84,14.20,8.60,27.50,54.15,11.78
2018-06-01 05:00,16.6,86,14.20,8.50,27.50,52.41,11.67
2018-06-01 05:30,17,85,14.50,8.50,27.50,52.41,11.67
2018-06-01 06:00,17.8,82,14.70,8.50,55.00,52.41,11.67
2018-06-01 06:30,18.5,79,14.80,9.20,55.00,55.00,12.44
2018-06-01 07:00,19.3,76,15.00,9.00,55.00,55.00,12.22
2018-06-01 07:30,20.2,73,15.20,9.20,55.00,55.00,12.44
2018-06-01 08:00,20.8,71,15.30,8.70,55.00,55.00,11.89
2018-06-01 08:30,22,67,15.60,8.20,55.00,47.32,11.33
2018-06-01 09:00,23,64,15.80,9.40,55.00,55.00,12.66
2018-06-01 09:30,23.7,62,16.00,8.70,55.00,55.00,11.89
2018-06-01 10:00,24.8,59,16.20,9.00,55.00,55.00,12.22
2018-06-01 10:30,25.7,56,16.30,9.30,55.00,55.00,12.55
2018-06-01 11:00,26.7,53,16.30,9.10,55.00,55.00,12.33
2018-06-01 11:30,27.6,49,15.90,9.10,55.00,55.00,12.33
2018-06-01 12:00,27.6,49,15.90,9.20,55.00,55.00,12.44
2018-06-01 12:30,26.8,48,14.90,9.20,55.00,55.00,12.44
2018-06-01 13:00,27,49,15.40,8.00,55.00,44.04,11.11
2018-06-01 13:30,28,45,15.00,8.30,55.00,49.00,11.44
2018-06-01 14:00,27.6,44,14.30,9.20,55.00,55.00,12.44
2018-06-01 14:30,27.1,46,14.50,8.60,55.00,54.15,11.78
2018-06-01 15:00,27.2,49,15.60,8.50,55.00,52.41,11.67
2018-06-01 15:30,27.6,47,15.30,9.40,55.00,55.00,12.66
2018-06-01 16:00,27.4,48,15.40,8.20,55.00,47.32,11.33
2018-06-01 16:30,27,49,15.40,8.30,55.00,49.00,11.44
2018-06-01 17:00,26.7,51,15.70,8.30,55.00,49.00,11.44
2018-06-01 17:30,26.7,47,14.50,8.70,55.00,55.00,11.89
2018-06-01 18:00,26.6,48,14.70,8.50,55.00,52.41,11.67
2018-06-01 18:30,26.4,47,14.20,9.20,55.00,55.00,12.44
2018-06-01 19:00,25.7,46,13.20,8.50,55.00,52.41,11.67
2018-06-01 19:30,25.2,45,12.40,8.50,55.00,52.41,11.67
2018-06-01 20:00,24.9,44,11.80,7.20,55.00,31.75,10.22
2018-06-01 20:30,23.5,57,14.50,8.00,55.00,44.04,11.11
2018-06-01 21:00,22.3,60,14.20,8.50,55.00,52.41,11.67
2018-06-01 21:30,21.7,63,14.40,8.50,55.00,52.41,11.67
2018-06-01 22:00,21.2,66,14.60,8.60,27.50,54.15,11.78
2018-06-01 22:30,20.6,68,14.50,9.00,27.50,55.00,12.22
2018-06-01 23:00,20,70,14.40,8.50,27.50,52.41,11.67
2018-06-01 23:30,19.5,73,14.50,8.60,27.50,54.15,11.78
2018-06-02 00:00,18.8,76,14.50,8.50,27.50,52.41,11.67
2018-06-02 00:30,18.3,78,14.40,8.50,27.50,52.41,11.67
2018-06-02 01:00,18.1,80,14.60,8.60,27.50,54.15,11.78
2018-06-02 01:30,17.7,81,14.40,9.00,27.50,55.00,12.22
2018-06-02 02:00,17.3,83,14.40,8.60,27.50,54.15,11.78
2018-06-02 02:30,16.7,86,14.30,8.60,27.50,54.15,11.78
2018-06-02 03:00,16.3,87,14.10,8.60,27.50,54.15,11.78
2018-06-02 03:30,16.1,88,14.10,8.60,27.50,54.15,11.78
2018-06-02 04:00,15.8,89,14.00,8.60,27.50,54.15,11.78
2018-06-02 04:30,15.6,89,13.80,8.30,27.50,49.00,11.44
2018-06-02 05:00,15.5,89,13.70,8.60,27.50,54.15,11.78
2018-06-02 05:30,15.9,88,13.90,8.40,27.50,50.69,11.55
2018-06-02 06:00,16.6,85,14.10,8.60,55.00,54.15,11.78
2018-06-02 06:30,16.9,82,13.80,8.60,55.00,54.15,11.78
2018-06-02 07:00,17.8,79,14.10,8.60,55.00,54.15,11.78
2018-06-02 07:30,18.7,76,14.40,8.60,55.00,54.15,11.78
2018-06-02 08:00,20.1,70,14.50,8.60,55.00,54.15,11.78
2018-06-02 08:30,21,69,15.10,8.50,55.00,52.41,11.67
2018-06-02 09:00,21.8,66,15.20,8.50,55.00,52.41,11.67
2018-06-02 09:30,22.7,62,15.00,8.70,55.00,55.00,11.89
2018-06-02 10:00,24.2,55,14.60,9.20,55.00,55.00,12.44
2018-06-02 10:30,25,51,14.20,9.00,55.00,55.00,12.22
2018-06-02 11:00,25.8,48,14.00,8.50,55.00,52.41,11.67
2018-06-02 11:30,26.4,46,13.90,8.30,55.00,49.00,11.44
2018-06-02 12:00,27.3,44,14.00,8.60,55.00,54.15,11.78
2018-06-02 12:30,27.8,41,13.30,8.30,55.00,49.00,11.44
2018-06-02 13:00,27.9,40,13.10,7.50,55.00,36.20,10.56
2018-06-02 13:30,28.3,34,10.90,8.10,55.00,45.67,11.22
2018-06-02 14:00,28.4,35,11.50,5.80,55.00,13.51,8.67
2018-06-02 14:30,28.4,36,11.90,7.20,55.00,31.75,10.22
2018-06-02 15:00,28.6,37,12.50,6.30,55.00,19.55,9.22
2018-06-02 15:30,28.8,38,13.10,7.70,55.00,39.27,10.78
2018-06-02 16:00,28.6,39,13.30,8.10,55.00,45.67,11.22
2018-06-02 16:30,27.2,45,14.20,7.50,55.00,36.20,10.56
2018-06-02 17:00,24.6,59,16.10,8.50,55.00,52.41,11.67
2018-06-02 17:30,21.9,64,14.80,8.90,55.00,55.00,12.11
2018-06-02 18:00,20.8,74,16.00,9.00,55.00,55.00,12.22
2018-06-02 18:30,19.9,73,14.90,9.00,55.00,55.00,12.22
2018-06-02 19:00,19.9,73,14.90,8.00,55.00,44.04,11.11
2018-06-02 19:30,19.7,70,14.10,8.00,55.00,44.04,11.11
2018-06-02 20:00,19.3,70,13.70,8.60,55.00,54.15,11.78
2018-06-02 20:30,18.8,71,13.40,8.40,55.00,50.69,11.55
2018-06-02 21:00,18.5,75,14.00,8.00,55.00,44.04,11.11
2018-06-02 21:30,18.2,78,14.30,8.30,55.00,49.00,11.44
2018-06-02 22:00,17.8,78,13.90,8.60,27.50,54.15,11.78
2018-06-02 22:30,17.6,78,13.70,8.60,27.50,54.15,11.78
2018-06-02 23:00,17.6,76,13.30,8.40,27.50,50.69,11.55
2018-06-02 23:30,17.4,77,13.30,7.50,27.50,36.20,10.56
2018-06-03 00:00,17.2,77,13.10,7.50,27.50,36.20,10.56
2018-06-03 00:30,16.8,79,13.10,8.10,27.50,45.67,11.22
2018-06-03 01:00,16.4,82,13.30,8.10,27.50,45.67,11.22
2018-06-03 01:30,16.5,85,14.00,7.50,27.50,36.20,10.56
2018-06-03 02:00,15.9,84,13.20,8.30,27.50,49.00,11.44
2018-06-03 02:30,15.5,88,13.50,8.50,27.50,52.41,11.67
2018-06-03 03:00,15.2,90,13.60,8.30,27.50,49.00,11.44
2018-06-03 03:30,15.1,89,13.30,8.00,27.50,44.04,11.11
2018-06-03 04:00,14.9,90,13.30,7.50,27.50,36.20,10.56
2018-06-03 04:30,14.7,90,13.10,7.50,27.50,36.20,10.56
2018-06-03 05:00,14.6,89,12.80,8.10,27.50,45.67,11.22
2018-06-03 05:30,15.1,86,12.80,7.70,27.50,39.27,10.78
2018-06-03 06:00,15.9,82,12.80,7.70,55.00,39.27,10.78
2018-06-03 06:30,16.5,81,13.20,7.70,55.00,39.27,10.78
2018-06-03 07:00,17.7,76,13.40,8.50,55.00,52.41,11.67
2018-06-03 07:30,18.4,72,13.30,8.00,55.00,44.04,11.11
2018-06-03 08:00,19.8,66,13.30,7.50,55.00,36.20,10.56
2018-06-03 08:30,20.5,63,13.20,7.50,55.00,36.20,10.56
2018-06-03 09:00,21.6,59,13.20,8.50,55.00,52.41,11.67
2018-06-03 09:30,22.4,56,13.20,8.50,55.00,52.41,11.67
2018-06-03 10:00,23.5,52,13.10,8.50,55.00,52.41,11.67
2018-06-03 10:30,24.4,50,13.30,8.10,55.00,45.67,11.22
2018-06-03 11:00,25.2,48,13.40,7.50,55.00,36.20,10.56
2018-06-03 11:30,25.7,45,12.90,8.00,55.00,44.04,11.11
2018-06-03 12:00,26.3,41,12.00,8.20,55.00,47.32,11.33
2018-06-03 12:30,26.8,41,12.50,8.20,55.00,47.32,11.33
2018-06-03 13:00,27.1,40,12.30,7.70,55.00,39.27,10.78
2018-06-03 13:30,27,40,12.30,6.30,55.00,19.55,9.22
2018-06-03 14:00,28.1,40,13.20,6.30,55.00,19.55,9.22
2018-06-03 14:30,28.3,40,13.40,8.50,55.00,52.41,11.67
2018-06-03 15:00,28.5,38,12.80,8.00,55.00,44.04,11.11
2018-06-03 15:30,28.4,36,11.90,7.70,55.00,39.27,10.78
2018-06-03 16:00,28.4,34,11.00,6.30,55.00,19.55,9.22
2018-06-03 16:30,28,34,10.70,6.60,55.00,23.42,9.56
2018-06-03 17:00,28.5,33,10.70,6.50,55.00,22.11,9.45
2018-06-03 17:30,28.6,30,9.30,6.50,55.00,22.11,9.45
2018-06-03 18:00,28.8,31,10.00,4.40,55.00,2.79,7.11
2018-06-03 18:30,28.1,37,12.00,4.40,55.00,2.79,7.11
2018-06-03 19:00,26.7,47,14.50,8.20,55.00,47.32,11.33
2018-06-03 19:30,26,50,14.80,8.50,55.00,52.41,11.67
2018-06-03 20:00,25.3,52,14.70,9.00,55.00,55.00,12.22
2018-06-03 20:30,24.4,55,14.80,9.20,55.00,55.00,12.44
2018-06-03 21:00,23.6,56,14.30,9.00,55.00,55.00,12.22
2018-06-03 21:30,23,57,14.00,8.60,55.00,54.15,11.78
2018-06-03 22:00,22.5,58,13.80,8.30,27.50,49.00,11.44
2018-06-03 22:30,21.9,61,14.00,8.60,27.50,54.15,11.78
2018-06-03 23:00,21.3,64,14.20,8.30,27.50,49.00,11.44
2018-06-03 23:30,20.8,68,14.70,8.50,27.50,52.41,11.67
2018-06-04 00:00,19.7,76,15.40,9.20,27.50,55.00,12.44
2018-06-04 00:30,19.3,78,15.40,8.30,27.50,49.00,11.44
2018-06-04 01:00,19,78,15.10,8.30,27.50,49.00,11.44
2018-06-04 01:30,18.7,81,15.40,8.50,27.50,52.41,11.67
2018-06-04 02:00,18.3,81,15.00,8.30,27.50,49.00,11.44
2018-06-04 02:30,17.8,84,15.10,9.20,27.50,55.00,12.44
2018-06-04 03:00,17.4,85,14.90,8.50,27.50,52.41,11.67
2018-06-04 03:30,17.2,86,14.80,8.00,27.50,44.04,11.11
2018-06-04 04:00,16.8,88,14.80,9.00,27.50,55.00,12.22
2018-06-04 04:30,16.6,87,14.40,9.00,27.50,55.00,12.22
2018-06-04 05:00,16.5,88,14.50,8.60,27.50,54.15,11.78
2018-06-04 05:30,17,85,14.50,8.50,27.50,52.41,11.67
2018-06-04 06:00,17.9,82,14.80,8.50,55.00,52.41,11.67
2018-06-04 06:30,18.8,77,14.70,9.00,55.00,55.00,12.22
2018-06-04 07:00,19.5,73,14.50,9.20,55.00,55.00,12.44
2018-06-04 07:30,20.7,70,15.00,8.50,55.00,52.41,11.67
2018-06-04 08:00,21.4,67,15.00,9.20,55.00,55.00,12.44
2018-06-04 08:30,22.2,64,15.10,9.20,55.00,55.00,12.44
2018-06-04 09:00,22.7,62,15.00,8.50,55.00,52.41,11.67
2018-06-04 09:30,23.8,60,15.60,9.20,55.00,55.00,12.44
2018-06-04 10:00,24.8,57,15.70,9.40,55.00,55.00,12.66
2018-06-04 10:30,25.7,52,15.10,8.70,55.00,55.00,11.89
2018-06-04 11:00,26.1,46,13.60,8.50,55.00,52.41,11.67
2018-06-04 11:30,27.2,42,13.20,8.00,55.00,44.04,11.11
2018-06-04 12:00,27.6,39,12.40,8.50,55.00,52.41,11.67
2018-06-04 12:30,28.2,36,11.70,7.20,55.00,31.75,10.22
2018-06-04 13:00,28.8,36,12.20,8.20,55.00,47.32,11.33
2018-06-04 13:30,29.2,34,11.70,7.70,55.00,39.27,10.78
2018-06-04 14:00,29.5,34,12.00,8.20,55.00,47.32,11.33
2018-06-04 14:30,29.5,35,12.40,8.20,55.00,47.32,11.33
2018-06-04 15:00,29.4,37,13.20,7.20,55.00,31.75,10.22
2018-06-04 15:30,29.8,37,13.60,8.50,55.00,52.41,11.67
2018-06-04 16:00,29.3,36,12.70,8.00,55.00,44.04,11.11
2018-06-04 16:30,28.7,40,13.80,7.70,55.00,39.27,10.78
2018-06-04 17:00,28.7,36,12.20,8.60,55.00,54.15,11.78
2018-06-04 17:30,28.6,36,12.10,7.70,55.00,39.27,10.78
2018-06-04 18:00,28.1,35,11.20,7.50,55.00,36.20,10.56
2018-06-04 18:30,27,36,10.70,5.30,55.00,8.00,8.11
2018-06-04 19:00,25.9,41,11.60,6.50,55.00,22.11,9.45
2018-06-04 19:30,25,42,11.20,8.00,55.00,44.04,11.11
2018-06-04 20:00,24.2,45,11.50,5.30,55.00,8.00,8.11
2018-06-04 20:30,23.5,51,12.80,7.20,55.00,31.75,10.22
2018-06-04 21:00,23,53,12.90,7.70,55.00,39.27,10.78
2018-06-04 21:30,22.3,52,12.00,8.20,55.00,47.32,11.33
2018-06-04 22:00,21.6,53,11.60,8.20,27.50,47.32,11.33
2018-06-04 22:30,21.2,55,11.80,8.00,27.50,44.04,11.11
2018-06-04 23:00,20.9,56,11.80,8.00,27.50,44.04,11.11
2018-06-04 23:30,20.2,59,11.90,8.00,27.50,44.04,11.11
2018-06-05 00:00,19.7,61,12.00,6.30,27.50,19.55,9.22
2018-06-05 00:30,19.1,64,12.10,8.20,27.50,47.32,11.33
2018-06-05 01:00,18.7,66,12.20,7.50,27.50,36.20,10.56
2018-06-05 01:30,18.4,68,12.40,7.70,27.50,39.27,10.78
2018-06-05 02:00,17.9,71,12.60,7.20,27.50,31.75,10.22
2018-06-05 02:30,17.5,74,12.80,8.40,27.50,50.69,11.55
2018-06-05 03:00,17.1,79,13.40,7.70,27.50,39.27,10.78
2018-06-05 03:30,16.9,78,13.00,8.00,27.50,44.04,11.11
2018-06-05 04:00,16.7,78,12.80,8.00,27.50,44.04,11.11
2018-06-05 04:30,16.6,80,13.10,7.70,27.50,39.27,10.78
2018-06-05 05:00,16.4,80,12.90,8.10,27.50,45.67,11.22
2018-06-05 05:30,16.7,80,13.20,8.20,27.50,47.32,11.33
2018-06-05 06:00,17.5,78,13.60,8.50,55.00,52.41,11.67
2018-06-05 06:30,18.2,75,13.70,8.00,55.00,44.04,11.11
2018-06-05 07:00,18.6,74,13.90,8.40,55.00,50.69,11.55
2018-06-05 07:30,18.7,74,14.00,8.60,55.00,54.15,11.78
2018-06-05 08:00,19.5,71,14.10,8.30,55.00,49.00,11.44
2018-06-05 08:30,21.1,64,14.00,8.60,55.00,54.15,11.78
2018-06-05 09:00,22.6,62,15.00,8.30,55.00,49.00,11.44
2018-06-05 09:30,23.7,60,15.50,9.20,55.00,55.00,12.44
2018-06-05 10:00,24.9,52,14.40,8.70,55.00,55.00,11.89
2018-06-05 10:30,25.7,50,14.50,8.60,55.00,54.15,11.78
2018-06-05 11:00,26.6,47,14.40,8.50,55.00,52.41,11.67
2018-06-05 11:30,27.1,46,14.50,8.60,55.00,54.15,11.78
2018-06-05 12:00,27.7,45,14.70,8.50,55.00,52.41,11.67
2018-06-05 12:30,28.1,43,14.30,9.20,55.00,55.00,12.44
2018-06-05 13:00,22.7,58,14.00,8.60,55.00,54.15,11.78
2018-06-05 13:30,19.4,61,11.70,8.30,55.00,49.00,11.44
2018-06-05 14:00,19.1,66,12.60,8.20,55.00,47.32,11.33
2018-06-05 14:30,18.7,72,13.50,8.40,55.00,50.69,11.55
2018-06-05 15:00,18.6,80,15.10,8.30,55.00,49.00,11.44
2018-06-05 15:30,18.4,80,14.90,8.50,55.00,52.41,11.67
2018-06-05 16:00,18.1,83,15.20,8.00,55.00,44.04,11.11
2018-06-05 16:30,17.9,86,15.50,8.70,55.00,55.00,11.89
2018-06-05 17:00,17.9,85,15.30,8.70,55.00,55.00,11.89
2018-06-05 17:30,18.1,83,15.20,8.20,55.00,47.32,11.33
2018-06-05 18:00,18.2,86,15.80,8.70,55.00,55.00,11.89
2018-06-05 18:30,18.1,87,15.90,8.70,55.00,55.00,11.89
2018-06-05 19:00,18.1,85,15.50,9.20,55.00,55.00,12.44
2018-06-05 19:30,18.1,85,15.50,8.70,55.00,55.00,11.89
2018-06-05 20:00,17.7,87,15.50,8.70,55.00,55.00,11.89
2018-06-05 20:30,17.4,87,15.20,8.70,55.00,55.00,11.89
2018-06-05 21:00,17.2,88,15.20,8.70,55.00,55.00,11.89
2018-06-05 21:30,17,90,15.30,8.70,55.00,55.00,11.89
2018-06-05 22:00,16.8,91,15.30,8.20,27.50,47.32,11.33
2018-06-05 22:30,16.6,91,15.10,8.20,27.50,47.32,11.33
2018-06-05 23:00,16.3,91,14.80,8.50,27.50,52.41,11.67
2018-06-05 23:30,16.1,93,15.00,9.00,27.50,55.00,12.22
2018-06-06 00:00,15.8,93,14.70,9.20,27.50,55.00,12.44
2018-06-06 00:30,15.4,95,14.60,9.20,27.50,55.00,12.44
2018-06-06 01:00,15.2,96,14.60,9.00,27.50,55.00,12.22
2018-06-06 01:30,15.1,96,14.50,9.00,27.50,55.00,12.22
2018-06-06 02:00,15.3,95,14.50,8.50,27.50,52.41,11.67
2018-06-06 02:30,15.3,94,14.30,8.50,27.50,52.41,11.67
2018-06-06 03:00,15,94,14.00,8.60,27.50,54.15,11.78
2018-06-06 03:30,14.8,94,13.80,8.30,27.50,49.00,11.44
2018-06-06 04:00,14.7,95,13.90,8.60,27.50,54.15,11.78
2018-06-06 04:30,14.8,95,14.00,8.60,27.50,54.15,11.78
2018-06-06 05:00,14.9,95,14.10,8.30,27.50,49.00,11.44
2018-06-06 05:30,15,95,14.20,8.60,27.50,54.15,11.78
2018-06-06 06:00,15.1,95,14.30,8.50,55.00,52.41,11.67
2018-06-06 06:30,15.1,95,14.30,8.60,55.00,54.15,11.78
2018-06-06 07:00,15.4,94,14.40,8.60,55.00,54.15,11.78
2018-06-06 07:30,15.7,92,14.40,8.60,55.00,54.15,11.78
2018-06-06 08:00,16.5,88,14.50,8.60,55.00,54.15,11.78
2018-06-06 08:30,17.4,84,14.70,8.50,55.00,52.41,11.67
2018-06-06 09:00,18.7,79,15.00,9.20,55.00,55.00,12.44
2018-06-06 09:30,20.4,74,15.60,9.20,55.00,55.00,12.44
2018-06-06 10:00,21.8,69,15.90,9.40,55.00,55.00,12.66
2018-06-06 10:30,22.9,65,16.00,9.20,55.00,55.00,12.44
2018-06-06 11:00,23.9,57,14.90,9.00,55.00,55.00,12.22
2018-06-06 11:30,25,53,14.80,8.00,55.00,44.04,11.11
2018-06-06 12:00,25.7,53,15.40,9.00,55.00,55.00,12.22
2018-06-06 12:30,26.2,51,15.30,8.30,55.00,49.00,11.44
2018-06-06 13:00,27,48,15.10,8.20,55.00,47.32,11.33
2018-06-06 13:30,27,49,15.40,8.50,55.00,52.41,11.67
2018-06-06 14:00,26.4,50,15.10,8.30,55.00,49.00,11.44
2018-06-06 14:30,25.4,52,14.80,8.50,55.00,52.41,11.67
2018-06-06 15:00,25.4,52,14.80,9.00,55.00,55.00,12.22
2018-06-06 15:30,25.5,55,15.80,9.00,55.00,55.00,12.22
2018-06-06 16:00,25.8,54,15.80,8.70,55.00,55.00,11.89
2018-06-06 16:30,25.4,53,15.10,8.70,55.00,55.00,11.89
2018-06-06 17:00,25.3,52,14.70,8.50,55.00,52.41,11.67
2018-06-06 17:30,25.8,52,15.20,9.20,55.00,55.00,12.44
2018-06-06 18:00,25.3,54,15.30,8.70,55.00,55.00,11.89
2018-06-06 18:30,24.8,56,15.40,8.20,55.00,47.32,11.33
2018-06-06 19:00,24.4,58,15.60,8.30,55.00,49.00,11.44
2018-06-06 19:30,23.9,58,15.10,9.40,55.00,55.00,12.66
2018-06-06 20:00,23.3,65,16.40,8.50,55.00,52.41,11.67
2018-06-06 20:30,22.6,64,15.40,9.40,55.00,55.00,12.66
2018-06-06 21:00,22.3,62,14.70,8.30,55.00,49.00,11.44
2018-06-06 21:30,22,62,14.40,9.20,55.00,55.00,12.44
2018-06-06 22:00,21.3,64,14.20,8.60,27.50,54.15,11.78
2018-06-06 22:30,21.1,64,14.00,8.50,27.50,52.41,11.67
2018-06-06 23:00,20.3,72,15.10,8.30,27.50,49.00,11.44
2018-06-06 23:30,19.5,78,15.60,8.50,27.50,52.41,11.67
2018-06-07 00:00,19.2,78,15.30,9.40,27.50,55.00,12.66
2018-06-07 00:30,18.7,80,15.20,8.20,27.50,47.32,11.33
2018-06-07 01:00,18.3,83,15.40,8.70,27.50,55.00,11.89
2018-06-07 01:30,17.8,85,15.20,8.30,27.50,49.00,11.44
2018-06-07 02:00,17.6,85,15.00,8.70,27.50,55.00,11.89
2018-06-07 02:30,17.3,86,14.90,9.20,27.50,55.00,12.44
2018-06-07 03:00,16.8,87,14.60,8.00,27.50,44.04,11.11
2018-06-07 03:30,16.6,89,14.80,9.00,27.50,55.00,12.22
2018-06-07 04:00,16.5,90,14.90,9.00,27.50,55.00,12.22
2018-06-07 04:30,16.5,90,14.90,8.00,27.50,44.04,11.11
2018-06-07 05:00,16.5,89,14.70,8.00,27.50,44.04,11.11
2018-06-07 05:30,16.8,88,14.80,9.20,27.50,55.00,12.44
2018-06-07 06:00,17.1,87,14.90,9.00,55.00,55.00,12.22
2018-06-07 06:30,17.9,84,15.20,8.00,55.00,44.04,11.11
2018-06-07 07:00,19.2,79,15.50,8.70,55.00,55.00,11.89
2018-06-07 07:30,19.9,76,15.50,8.70,55.00,55.00,11.89
2018-06-07 08:00,20.7,74,15.90,8.70,55.00,55.00,11.89
2018-06-07 08:30,21.5,72,16.20,9.20,55.00,55.00,12.44
2018-06-07 09:00,22,70,16.30,9.30,55.00,55.00,12.55
2018-06-07 09:30,23,66,16.30,9.10,55.00,55.00,12.33
2018-06-07 10:00,23.6,63,16.10,9.10,55.00,55.00,12.33
2018-06-07 10:30,24.2,61,16.20,8.90,55.00,55.00,12.11
2018-06-07 11:00,25.1,57,16.00,9.30,55.00,55.00,12.55
2018-06-07 11:30,26,53,15.70,9.00,55.00,55.00,12.22
2018-06-07 12:00,26.3,51,15.40,8.70,55.00,55.00,11.89
2018-06-07 12:30,26.8,50,15.50,8.30,55.00,49.00,11.44
2018-06-07 13:00,26.6,50,15.30,8.70,55.00,55.00,11.89
2018-06-07 13:30,24.9,59,16.30,8.20,55.00,47.32,11.33
2018-06-07 14:00,25.1,60,16.80,9.10,55.00,55.00,12.33
2018-06-07 14:30,24.4,63,16.90,10.10,55.00,55.00,13.44
2018-06-07 15:00,23.9,62,16.20,9.60,55.00,55.00,12.89
2018-06-07 15:30,23.2,65,16.30,9.30,55.00,55.00,12.55
2018-06-07 16:00,23.1,64,15.90,9.10,55.00,55.00,12.33
2018-06-07 16:30,23.2,63,15.80,9.20,55.00,55.00,12.44
2018-06-07 17:00,23.1,64,15.90,8.70,55.00,55.00,11.89
2018-06-07 17:30,23.3,64,16.10,9.20,55.00,55.00,12.44
2018-06-07 18:00,23.1,67,16.60,8.90,55.00,55.00,12.11
2018-06-07 18:30,22.9,67,16.40,9.70,55.00,55.00,13.00
2018-06-07 19:00,22.6,68,16.40,9.40,55.00,55.00,12.66
2018-06-07 19:30,22.5,67,16.10,9.40,55.00,55.00,12.66
2018-06-07 20:00,22,71,16.50,8.90,55.00,55.00,12.11
2018-06-07 20:30,21.2,74,16.40,9.60,55.00,55.00,12.89
2018-06-07 21:00,20.6,78,16.60,9.40,55.00,55.00,12.66
2018-06-07 21:30,20.2,80,16.60,9.70,55.00,55.00,13.00
2018-06-07 22:00,19.8,85,17.20,9.70,27.50,55.00,13.00
2018-06-07 22:30,19.3,87,17.10,10.50,27.50,55.00,13.89
2018-06-07 23:00,18.4,85,15.80,9.40,27.50,55.00,12.66
2018-06-07 23:30,18.1,86,15.70,8.70,27.50,55.00,11.89
2018-06-08 00:00,18.2,89,16.40,8.70,27.50,55.00,11.89
2018-06-08 00:30,18.1,86,15.70,9.40,27.50,55.00,12.66
2018-06-08 01:00,17.2,88,15.20,8.70,27.50,55.00,11.89
2018-06-08 01:30,16.8,91,15.30,8.70,27.50,55.00,11.89
2018-06-08 02:00,16.7,91,15.20,8.20,27.50,47.32,11.33
2018-06-08 02:30,16.7,91,15.20,8.70,27.50,55.00,11.89
2018-06-08 03:00,16.5,92,15.20,8.70,27.50,55.00,11.89
2018-06-08 03:30,16.5,94,15.50,8.70,27.50,55.00,11.89
2018-06-08 04:00,16.4,92,15.10,8.70,27.50,55.00,11.89
2018-06-08 04:30,16.2,93,15.10,8.50,27.50,52.41,11.67
2018-06-08 05:00,16,94,15.00,8.50,27.50,52.41,11.67
2018-06-08 05:30,16.3,94,15.30,9.20,27.50,55.00,12.44
2018-06-08 06:00,16.7,92,15.40,8.20,55.00,47.32,11.33
2018-06-08 06:30,17.1,90,15.40,8.30,55.00,49.00,11.44
2018-06-08 07:00,17.6,88,15.60,8.30,55.00,49.00,11.44
2018-06-08 07:30,17.8,87,15.60,9.40,55.00,55.00,12.66
2018-06-08 08:00,18.6,83,15.70,9.40,55.00,55.00,12.66
2018-06-08 08:30,19.8,78,15.90,8.70,55.00,55.00,11.89
2018-06-08 09:00,20.9,73,15.90,9.20,55.00,55.00,12.44
2018-06-08 09:30,21.4,73,16.40,9.20,55.00,55.00,12.44
2018-06-08 10:00,22,71,16.50,9.40,55.00,55.00,12.66
2018-06-08 10:30,23.2,66,16.50,9.60,55.00,55.00,12.89
2018-06-08 11:00,24.3,63,16.80,9.60,55.00,55.00,12.89
2018-06-08 11:30,24.9,59,16.30,10.10,55.00,55.00,13.44
2018-06-08 12:00,25.3,58,16.40,9.10,55.00,55.00,12.33
2018-06-08 12:30,25.3,58,16.40,9.40,55.00,55.00,12.66
2018-06-08 13:00,25.1,58,16.30,9.40,55.00,55.00,12.66
2018-06-08 13:30,24.9,58,16.10,9.10,55.00,55.00,12.33
2018-06-08 14:00,25.1,55,15.40,8.90,55.00,55.00,12.11
2018-06-08 14:30,25.2,57,16.10,8.30,55.00,49.00,11.44
2018-06-08 15:00,25.6,56,16.20,8.90,55.00,55.00,12.11
2018-06-08 15:30,25.6,58,16.70,9.30,55.00,55.00,12.55
2018-06-08 16:00,25.9,59,17.30,9.20,55.00,55.00,12.44
2018-06-08 16:30,25.5,61,17.40,9.90,55.00,55.00,13.22
2018-06-08 17:00,24.7,65,17.70,10.00,55.00,55.00,13.33
2018-06-08 17:30,23.4,73,18.30,10.50,55.00,55.00,13.89
2018-06-08 18:00,22.2,82,19.00,10.50,55.00,55.00,13.89
2018-06-08 18:30,22.1,82,18.90,10.50,55.00,55.00,13.89
2018-06-08 19:00,21.8,82,18.60,10.30,55.00,55.00,13.66
2018-06-08 19:30,21.5,78,17.50,10.50,55.00,55.00,13.89
2018-06-08 20:00,20.9,77,16.70,10.30,55.00,55.00,13.66
2018-06-08 20:30,20.6,78,16.60,9.20,55.00,55.00,12.44
2018-06-08 21:00,19.7,88,17.70,9.70,55.00,55.00,13.00
2018-06-08 21:30,18.8,88,16.80,10.50,55.00,55.00,13.89
2018-06-08 22:00,18.3,89,16.50,10.10,27.50,55.00,13.44
2018-06-08 22:30,18.1,90,16.40,9.60,27.50,55.00,12.89
2018-06-08 23:00,18.2,89,16.40,9.40,27.50,55.00,12.66
2018-06-08 23:30,18.2,90,16.50,9.40,27.50,55.00,12.66
2018-06-09 00:00,17.9,90,16.20,9.60,27.50,55.00,12.89
2018-06-09 00:30,17.6,90,15.90,9.30,27.50,55.00,12.55
2018-06-09 01:00,17.7,92,16.40,9.20,27.50,55.00,12.44
2018-06-09 01:30,17.7,91,16.20,9.40,27.50,55.00,12.66
2018-06-09 02:00,17.8,92,16.50,9.30,27.50,55.00,12.55
2018-06-09 02:30,17.5,92,16.20,9.60,27.50,55.00,12.89
2018-06-09 03:00,17.2,93,16.10,9.30,27.50,55.00,12.55
2018-06-09 03:30,17.3,92,16.00,8.90,27.50,55.00,12.11
2018-06-09 04:00,17.3,92,16.00,9.00,27.50,55.00,12.22
2018-06-09 04:30,17.1,91,15.60,9.00,27.50,55.00,12.22
2018-06-09 05:00,16.9,92,15.60,9.40,27.50,55.00,12.66
2018-06-09 05:30,16.8,93,15.70,9.40,27.50,55.00,12.66
2018-06-09 06:00,16.8,94,15.80,8.70,55.00,55.00,11.89
2018-06-09 06:30,17,93,15.90,8.70,55.00,55.00,11.89
2018-06-09 07:00,17.3,91,15.80,9.20,55.00,55.00,12.44
2018-06-09 07:30,18,87,15.80,8.70,55.00,55.00,11.89
2018-06-09 08:00,18.8,83,15.90,8.70,55.00,55.00,11.89
2018-06-09 08:30,19.8,78,15.90,9.20,55.00,55.00,12.44
2018-06-09 09:00,20.4,76,16.00,9.20,55.00,55.00,12.44
2018-06-09 09:30,21.3,74,16.50,9.00,55.00,55.00,12.22
2018-06-09 10:00,22.2,69,16.20,9.60,55.00,55.00,12.89
2018-06-09 10:30,22.6,67,16.20,9.30,55.00,55.00,12.55
2018-06-09 11:00,23.3,63,15.90,9.30,55.00,55.00,12.55
2018-06-09 11:30,24.4,60,16.10,9.20,55.00,55.00,12.44
2018-06-09 12:00,25.2,54,15.20,8.90,55.00,55.00,12.11
2018-06-09 12:30,25.5,55,15.80,8.70,55.00,55.00,11.89
2018-06-09 13:00,26.1,54,16.10,8.70,55.00,55.00,11.89
2018-06-09 13:30,26.5,53,16.10,8.90,55.00,55.00,12.11
2018-06-09 14:00,26.8,52,16.10,8.90,55.00,55.00,12.11
2018-06-09 14:30,26.6,54,16.50,8.90,55.00,55.00,12.11
2018-06-09 15:00,26.7,52,16.00,9.60,55.00,55.00,12.89
2018-06-09 15:30,26.2,52,15.60,9.00,55.00,55.00,12.22
2018-06-09 16:00,26.6,52,15.90,9.40,55.00,55.00,12.66
2018-06-09 16:30,26.7,52,16.00,9.20,55.00,55.00,12.44
2018-06-09 17:00,26.8,52,16.10,9.00,55.00,55.00,12.22
2018-06-09 17:30,26.7,52,16.00,8.90,55.00,55.00,12.11
2018-06-09 18:00,25.9,59,17.30,9.00,55.00,55.00,12.22
2018-06-09 18:30,23.2,75,18.50,9.90,55.00,55.00,13.22
2018-06-09 19:00,22.8,76,18.30,10.30,55.00,55.00,13.66
2018-06-09 19:30,22.4,79,18.60,10.50,55.00,55.00,13.89
2018-06-09 20:00,22.5,76,18.10,10.50,55.00,55.00,13.89
2018-06-09 20:30,22.3,77,18.10,10.20,55.00,55.00,13.55
2018-06-09 21:00,21.9,80,18.30,10.20,55.00,55.00,13.55
2018-06-09 21:30,21.2,83,18.20,10.50,55.00,55.00,13.89
2018-06-09 22:00,20.9,85,18.30,10.10,27.50,55.00,13.44
2018-06-09 22:30,20.7,86,18.30,10.50,27.50,55.00,13.89
2018-06-09 23:00,20.5,86,18.10,10.50,27.50,55.00,13.89
2018-06-09 23:30,20.3,86,17.90,10.20,27.50,55.00,13.55
2018-06-10 00:00,19.9,87,17.70,10.10,27.50,55.00,13.44
2018-06-10 00:30,19.7,87,17.50,10.50,27.50,55.00,13.89
2018-06-10 01:00,19.5,88,17.50,10.30,27.50,55.00,13.66
2018-06-10 01:30,19.3,89,17.40,10.30,27.50,55.00,13.66
2018-06-10 02:00,18.9,90,17.20,10.00,27.50,55.00,13.33
2018-06-10 02:30,18.5,92,17.20,10.50,27.50,55.00,13.89
2018-06-10 03:00,18.3,92,17.00,10.50,27.50,55.00,13.89
2018-06-10 03:30,18,94,17.00,9.90,27.50,55.00,13.22
2018-06-10 04:00,17.8,94,16.80,9.90,27.50,55.00,13.22
2018-06-10 04:30,17.8,95,17.00,10.10,27.50,55.00,13.44
2018-06-10 05:00,18,94,17.00,9.90,27.50,55.00,13.22
2018-06-10 05:30,18.1,93,16.90,9.90,27.50,55.00,13.22
2018-06-10 06:00,18.3,91,16.80,9.60,55.00,55.00,12.89
2018-06-10 06:30,18.5,90,16.80,10.10,55.00,55.00,13.44
2018-06-10 07:00,19,88,17.00,10.10,55.00,55.00,13.44
2018-06-10 07:30,19.4,87,17.20,9.90,55.00,55.00,13.22
2018-06-10 08:00,20,84,17.20,10.50,55.00,55.00,13.89
2018-06-10 08:30,21.3,78,17.30,10.50,55.00,55.00,13.89
2018-06-10 09:00,22.6,72,17.30,9.90,55.00,55.00,13.22
2018-06-10 09:30,23.5,68,17.30,9.90,55.00,55.00,13.22
2018-06-10 10:00,24.7,63,17.20,9.90,55.00,55.00,13.22
2018-06-10 10:30,25.6,60,17.30,10.50,55.00,55.00,13.89
2018-06-10 11:00,26.3,57,17.10,9.90,55.00,55.00,13.22
2018-06-10 11:30,27.3,54,17.20,9.40,55.00,55.00,12.66
2018-06-10 12:00,27.8,51,16.70,10.50,55.00,55.00,13.89
2018-06-10 12:30,28.8,45,15.70,9.20,55.00,55.00,12.44
2018-06-10 13:00,29.3,44,15.80,8.70,55.00,55.00,11.89
2018-06-10 13:30,29.6,40,14.60,8.70,55.00,55.00,11.89
2018-06-10 14:00,29.8,41,15.10,9.00,55.00,55.00,12.22
2018-06-10 14:30,29.8,40,14.80,8.50,55.00,52.41,11.67
2018-06-10 15:00,28.7,45,15.60,9.00,55.00,55.00,12.22
2018-06-10 15:30,27.2,55,17.40,9.40,55.00,55.00,12.66
2018-06-10 16:00,27,57,17.80,10.00,55.00,55.00,13.33
2018-06-10 16:30,27.4,58,18.40,9.90,55.00,55.00,13.22
2018-06-10 17:00,27.9,54,17.70,10.40,55.00,55.00,13.77
2018-06-10 17:30,28.2,53,17.70,10.50,55.00,55.00,13.89
2018-06-10 18:00,27.7,55,17.80,10.50,55.00,55.00,13.89
2018-06-10 18:30,27.5,56,17.90,9.90,55.00,55.00,13.22
2018-06-10 19:00,26.9,55,17.10,10.10,55.00,55.00,13.44
2018-06-10 19:30,26.2,60,17.80,9.40,55.00,55.00,12.66
2018-06-10 20:00,25.5,65,18.40,9.90,55.00,55.00,13.22
2018-06-10 20:30,24.6,67,18.10,10.40,55.00,55.00,13.77
2018-06-10 21:00,24.1,68,17.80,10.20,55.00,55.00,13.55
2018-06-10 21:30,23.7,70,17.90,9.90,55.00,55.00,13.22
2018-06-10 22:00,23.2,73,18.10,10.10,27.50,55.00,13.44
2018-06-10 22:30,22.6,76,18.20,10.20,27.50,55.00,13.55
2018-06-10 23:00,22.2,80,18.60,10.10,27.50,55.00,13.44
2018-06-10 23:30,21.7,79,17.90,10.50,27.50,55.00,13.89
2018-06-11 00:00,21.2,81,17.80,10.10,27.50,55.00,13.44
2018-06-11 00:30,20.8,81,17.40,9.90,27.50,55.00,13.22
2018-06-11 01:00,20.5,82,17.30,10.00,27.50,55.00,13.33
2018-06-11 01:30,20.2,83,17.20,9.90,27.50,55.00,13.22
2018-06-11 02:00,20.1,84,17.30,10.50,27.50,55.00,13.89
2018-06-11 02:30,19.6,86,17.20,9.90,27.50,55.00,13.22
2018-06-11 03:00,19.2,88,17.20,10.50,27.50,55.00,13.89
2018-06-11 03:30,18.9,89,17.00,10.50,27.50,55.00,13.89
2018-06-11 04:00,18.7,88,16.70,9.90,27.50,55.00,13.22
2018-06-11 04:30,18.7,88,16.70,9.20,27.50,55.00,12.44
2018-06-11 05:00,18.6,88,16.60,9.20,27.50,55.00,12.44
2018-06-11 05:30,18.9,87,16.70,9.70,27.50,55.00,13.00
2018-06-11 06:00,19.4,86,17.00,9.20,55.00,55.00,12.44
2018-06-11 06:30,19.8,85,17.20,9.90,55.00,55.00,13.22
2018-06-11 07:00,20.4,84,17.60,10.50,55.00,55.00,13.89
2018-06-11 07:30,21.3,80,17.70,10.20,55.00,55.00,13.55
2018-06-11 08:00,21.9,78,17.90,10.50,55.00,55.00,13.89
2018-06-11 08:30,22.7,76,18.30,10.10,55.00,55.00,13.44
2018-06-11 09:00,23.9,72,18.50,10.50,55.00,55.00,13.89
2018-06-11 09:30,24.8,68,18.50,10.30,55.00,55.00,13.66
2018-06-11 10:00,25.9,64,18.60,10.30,55.00,55.00,13.66
2018-06-11 10:30,26.8,60,18.40,10.50,55.00,55.00,13.89
2018-06-11 11:00,27.7,57,18.40,10.40,55.00,55.00,13.77
2018-06-11 11:30,28.2,52,17.40,10.40,55.00,55.00,13.77
2018-06-11 12:00,27.9,51,16.80,10.00,55.00,55.00,13.33
2018-06-11 12:30,29,51,17.80,10.10,55.00,55.00,13.44
2018-06-11 13:00,29.7,48,17.50,9.90,55.00,55.00,13.22
2018-06-11 13:30,30.2,47,17.60,10.30,55.00,55.00,13.66
2018-06-11 14:00,30.3,48,18.10,10.20,55.00,55.00,13.55
2018-06-11 14:30,30.2,48,18.00,10.20,55.00,55.00,13.55
2018-06-11 15:00,30.5,48,18.30,10.30,55.00,55.00,13.66
2018-06-11 15:30,31,46,18.00,10.50,55.00,55.00,13.89
2018-06-11 16:00,31.1,44,17.40,10.30,55.00,55.00,13.66
2018-06-11 16:30,31.1,43,17.10,10.00,55.00,55.00,13.33
2018-06-11 17:00,31,43,17.00,9.40,55.00,55.00,12.66
2018-06-11 17:30,30.6,47,18.00,9.90,55.00,55.00,13.22
2018-06-11 18:00,30,48,17.80,10.30,55.00,55.00,13.66
2018-06-11 18:30,28.7,49,16.90,9.90,55.00,55.00,13.22
2018-06-11 19:00,27.7,53,17.30,9.60,55.00,55.00,12.89
2018-06-11 19:30,26.9,54,16.80,9.90,55.00,55.00,13.22
2018-06-11 20:00,26.3,49,14.70,10.10,55.00,55.00,13.44
2018-06-11 20:30,25.6,52,15.00,9.20,55.00,55.00,12.44
2018-06-11 21:00,25.2,55,15.50,9.20,55.00,55.00,12.44
2018-06-11 21:30,24.6,58,15.80,8.70,55.00,55.00,11.89
2018-06-11 22:00,23.9,61,15.90,8.70,27.50,55.00,11.89
2018-06-11 22:30,23.4,64,16.20,9.20,27.50,55.00,12.44
2018-06-11 23:00,22.9,66,16.20,9.30,27.50,55.00,12.55
2018-06-11 23:30,22.5,67,16.10,9.30,27.50,55.00,12.55
2018-06-12 00:00,22.2,66,15.50,8.90,27.50,55.00,12.11
2018-06-12 00:30,21.9,65,15.00,8.70,27.50,55.00,11.89
2018-06-12 01:00,21.6,66,15.00,9.20,27.50,55.00,12.44
2018-06-12 01:30,21.5,64,14.40,9.20,27.50,55.00,12.44
2018-06-12 02:00,21.3,65,14.50,8.60,27.50,54.15,11.78
2018-06-12 02:30,21,68,14.90,8.50,27.50,52.41,11.67
2018-06-12 03:00,20.3,76,15.90,8.00,27.50,44.04,11.11
2018-06-12 03:30,20.4,72,15.20,9.20,27.50,55.00,12.44
2018-06-12 04:00,20,76,15.60,8.70,27.50,55.00,11.89
2018-06-12 04:30,18.9,84,16.10,9.40,27.50,55.00,12.66
2018-06-12 05:00,18.7,85,16.10,8.90,27.50,55.00,12.11
2018-06-12 05:30,19.1,83,16.10,8.90,27.50,55.00,12.11
2018-06-12 06:00,20,79,16.20,8.90,55.00,55.00,12.11
2018-06-12 06:30,20.7,77,16.50,9.30,55.00,55.00,12.55
2018-06-12 07:00,21.6,73,16.60,9.60,55.00,55.00,12.89
2018-06-12 07:30,22.5,70,16.80,9.70,55.00,55.00,13.00
2018-06-12 08:00,23,70,17.20,10.10,55.00,55.00,13.44
2018-06-12 08:30,24.1,67,17.60,10.50,55.00,55.00,13.89
2018-06-12 09:00,24.8,62,17.00,10.20,55.00,55.00,13.55
2018-06-12 09:30,25.2,59,16.60,9.90,55.00,55.00,13.22
2018-06-12 10:00,25.5,58,16.60,9.70,55.00,55.00,13.00
2018-06-12 10:30,25.8,56,16.40,9.70,55.00,55.00,13.00
2018-06-12 11:00,26,59,17.40,9.40,55.00,55.00,12.66
2018-06-12 11:30,27.6,54,17.50,10.00,55.00,55.00,13.33
2018-06-12 12:00,28.4,50,17.00,10.30,55.00,55.00,13.66
2018-06-12 12:30,29.4,47,16.90,9.90,55.00,55.00,13.22
2018-06-12 13:00,29.9,43,16.00,9.60,55.00,55.00,12.89
2018-06-12 13:30,29.7,44,16.20,9.00,55.00,55.00,12.22
2018-06-12 14:00,29.5,46,16.70,9.30,55.00,55.00,12.55
2018-06-12 14:30,30.1,44,16.50,9.20,55.00,55.00,12.44
2018-06-12 15:00,30.3,43,16.30,9.60,55.00,55.00,12.89
2018-06-12 15:30,28.3,50,16.90,9.10,55.00,55.00,12.33
2018-06-12 16:00,25,51,14.20,9.60,55.00,55.00,12.89
2018-06-12 16:30,22.9,64,15.70,8.50,55.00,52.41,11.67
2018-06-12 17:00,21.8,74,17.00,8.70,55.00,55.00,11.89
2018-06-12 17:30,21.6,74,16.80,9.90,55.00,55.00,13.22
2018-06-12 18:00,21.8,70,16.10,10.10,55.00,55.00,13.44
2018-06-12 18:30,22.4,68,16.20,8.90,55.00,55.00,12.11
2018-06-12 19:00,22.1,73,17.00,9.30,55.00,55.00,12.55
2018-06-12 19:30,21.9,70,16.20,9.90,55.00,55.00,13.22
2018-06-12 20:00,21.6,70,15.90,9.30,55.00,55.00,12.55
2018-06-12 20:30,21.3,72,16.00,9.20,55.00,55.00,12.44
2018-06-12 21:00,20.8,74,16.00,9.00,55.00,55.00,12.22
2018-06-12 21:30,20.5,74,15.70,9.00,55.00,55.00,12.22
2018-06-12 22:00,20.1,77,15.90,8.70,27.50,55.00,11.89
2018-06-12 22:30,19.7,80,16.20,9.20,27.50,55.00,12.44
2018-06-12 23:00,19.8,82,16.60,9.30,27.50,55.00,12.55
2018-06-12 23:30,19.8,76,15.40,9.70,27.50,55.00,13.00
2018-06-13 00:00,19.2,69,13.40,8.30,27.50,49.00,11.44
2018-06-13 00:30,18.4,70,12.80,8.00,27.50,44.04,11.11
2018-06-13 01:00,17.8,75,13.30,7.70,27.50,39.27,10.78
2018-06-13 01:30,17.4,80,13.90,7.50,27.50,36.20,10.56
2018-06-13 02:00,17.1,81,13.80,8.60,27.50,54.15,11.78
2018-06-13 02:30,16.7,81,13.40,8.60,27.50,54.15,11.78
2018-06-13 03:00,16.3,83,13.40,8.00,27.50,44.04,11.11
2018-06-13 03:30,16,83,13.10,8.00,27.50,44.04,11.11
2018-06-13 04:00,16.1,82,13.00,8.10,27.50,45.67,11.22
2018-06-13 04:30,16.3,84,13.60,8.00,27.50,44.04,11.11
2018-06-13 05:00,15.7,88,13.70,8.00,27.50,44.04,11.11
2018-06-13 05:30,15.9,90,14.30,8.40,27.50,50.69,11.55
2018-06-13 06:00,16,90,14.40,8.60,55.00,54.15,11.78
2018-06-13 06:30,16.3,88,14.30,8.60,55.00,54.15,11.78
2018-06-13 07:00,17.8,82,14.70,8.60,55.00,54.15,11.78
2018-06-13 07:30,18.3,79,14.60,9.20,55.00,55.00,12.44
2018-06-13 08:00,19.7,72,14.50,9.00,55.00,55.00,12.22
2018-06-13 08:30,20.2,70,14.60,8.50,55.00,52.41,11.67
2018-06-13 09:00,20.8,67,14.40,9.00,55.00,55.00,12.22
2018-06-13 09:30,21.2,65,14.40,8.60,55.00,54.15,11.78
2018-06-13 10:00,21.9,64,14.80,8.60,55.00,54.15,11.78
2018-06-13 10:30,22.8,60,14.60,9.00,55.00,55.00,12.22
2018-06-13 11:00,22.4,61,14.50,9.00,55.00,55.00,12.22
2018-06-13 11:30,22,62,14.40,8.50,55.00,52.41,11.67
2018-06-13 12:00,21.4,64,14.30,8.60,55.00,54.15,11.78
2018-06-13 12:30,20.2,64,13.20,8.60,55.00,54.15,11.78
2018-06-13 13:00,19.2,73,14.20,8.50,55.00,52.41,11.67
2018-06-13 13:30,19.4,73,14.40,8.50,55.00,52.41,11.67
2018-06-13 14:00,20,69,14.10,8.60,55.00,54.15,11.78
2018-06-13 14:30,20.7,68,14.60,8.60,55.00,54.15,11.78
2018-06-13 15:00,21.5,66,14.90,9.00,55.00,55.00,12.22
2018-06-13 15:30,22.2,65,15.30,8.00,55.00,44.04,11.11
2018-06-13 16:00,23,63,15.60,8.20,55.00,47.32,11.33
2018-06-13 16:30,23.6,59,15.10,9.40,55.00,55.00,12.66
2018-06-13 17:00,23.1,61,15.20,8.50,55.00,52.41,11.67
2018-06-13 17:30,23,62,15.30,8.70,55.00,55.00,11.89
2018-06-13 18:00,22.3,62,14.70,8.20,55.00,47.32,11.33
2018-06-13 18:30,21.7,61,13.90,9.20,55.00,55.00,12.44
2018-06-13 19:00,21,67,14.60,8.60,55.00,54.15,11.78
2018-06-13 19:30,20.7,66,14.10,9.00,55.00,55.00,12.22
2018-06-13 20:00,20.1,63,12.80,8.60,55.00,54.15,11.78
2018-06-13 20:30,19.8,62,12.30,7.70,55.00,39.27,10.78
2018-06-13 21:00,19.6,63,12.40,6.30,55.00,19.55,9.22
2018-06-13 21:30,19.5,63,12.30,7.20,55.00,31.75,10.22
2018-06-13 22:00,19.4,65,12.70,6.30,27.50,19.55,9.22
2018-06-13 22:30,19.4,66,12.90,7.70,27.50,39.27,10.78
2018-06-13 23:00,19.3,69,13.50,8.20,27.50,47.32,11.33
2018-06-13 23:30,18.8,73,13.90,8.30,27.50,49.00,11.44
2018-06-14 00:00,18.6,74,13.90,8.60,27.50,54.15,11.78
2018-06-14 00:30,18.4,71,13.00,8.60,27.50,54.15,11.78
2018-06-14 01:00,18.3,69,12.50,8.00,27.50,44.04,11.11
2018-06-14 01:30,18.1,70,12.50,7.70,27.50,39.27,10.78
2018-06-14 02:00,18,72,12.90,7.70,27.50,39.27,10.78
2018-06-14 02:30,17.8,76,13.50,8.20,27.50,47.32,11.33
2018-06-14 03:00,17.7,79,14.00,8.30,27.50,49.00,11.44
2018-06-14 03:30,17.3,82,14.20,8.30,27.50,49.00,11.44
2018-06-14 04:00,17.1,82,14.00,8.50,27.50,52.41,11.67
2018-06-14 04:30,17,83,14.10,8.30,27.50,49.00,11.44
2018-06-14 05:00,17,83,14.10,8.60,27.50,54.15,11.78
2018-06-14 05:30,17.1,83,14.20,8.60,27.50,54.15,11.78
2018-06-14 06:00,17.2,83,14.30,8.50,55.00,52.41,11.67
2018-06-14 06:30,17.3,78,13.40,8.60,55.00,54.15,11.78
2018-06-14 07:00,17.4,75,12.90,8.00,55.00,44.04,11.11
2018-06-14 07:30,17.9,71,12.60,8.20,55.00,47.32,11.33
2018-06-14 08:00,18.7,64,11.80,8.40,55.00,50.69,11.55
2018-06-14 08:30,19.2,61,11.50,8.00,55.00,44.04,11.11
2018-06-14 09:00,20.1,58,11.60,7.20,55.00,31.75,10.22
2018-06-14 09:30,21.4,52,11.10,8.00,55.00,44.04,11.11
2018-06-14 10:00,21.6,49,10.40,7.10,55.00,30.31,10.11
2018-06-14 10:30,22.1,47,10.30,5.50,55.00,10.14,8.34
2018-06-14 11:00,21.9,47,10.10,4.20,55.00,2.66,6.89
2018-06-14 11:30,22.3,46,10.10,4.80,55.00,3.07,7.56
2018-06-14 12:00,22.7,46,10.50,4.80,55.00,3.07,7.56
2018-06-14 12:30,22.6,45,10.10,4.50,55.00,2.86,7.22
2018-06-14 13:00,23.2,44,10.30,4.80,55.00,3.07,7.56
2018-06-14 13:30,22.9,45,10.30,4.20,55.00,2.66,6.89
2018-06-14 14:00,23,45,10.40,4.20,55.00,2.66,6.89
2018-06-14 14:30,22.7,47,10.80,5.50,55.00,10.14,8.34
2018-06-14 15:00,22.5,48,10.90,6.70,55.00,24.76,9.67
2018-06-14 15:30,22.3,48,10.80,5.80,55.00,13.51,8.67
2018-06-14 16:00,21.8,49,10.60,6.70,55.00,24.76,9.67
2018-06-14 16:30,20.9,56,11.80,5.00,55.00,4.95,7.78
2018-06-14 17:00,20.5,59,12.20,8.00,55.00,44.04,11.11
2018-06-14 17:30,20.1,59,11.80,7.70,55.00,39.27,10.78
2018-06-14 18:00,19.6,61,11.90,8.00,55.00,44.04,11.11
2018-06-14 18:30,19,62,11.60,6.30,55.00,19.55,9.22
2018-06-14 19:00,18.6,62,11.20,8.00,55.00,44.04,11.11
2018-06-14 19:30,18.3,62,10.90,5.30,55.00,8.00,8.11
2018-06-14 20:00,18,62,10.60,5.80,55.00,13.51,8.67
2018-06-14 20:30,17.7,62,10.30,5.00,55.00,4.95,7.78
2018-06-14 21:00,17.5,62,10.10,4.20,55.00,2.66,6.89
2018-06-14 21:30,17.4,62,10.00,4.80,55.00,3.07,7.56
2018-06-14 22:00,17.2,62,9.90,4.40,27.50,2.79,7.11
2018-06-14 22:30,17.2,62,9.90,4.70,27.50,3.00,7.45
2018-06-14 23:00,17.1,63,10.00,4.70,27.50,3.00,7.45
2018-06-14 23:30,17.1,63,10.00,4.40,27.50,2.79,7.11
2018-06-15 00:00,17.1,64,10.20,4.40,27.50,2.79,7.11
2018-06-15 00:30,17,64,10.10,4.30,27.50,2.73,7.00
2018-06-15 01:00,17,63,9.90,4.80,27.50,3.07,7.56
2018-06-15 01:30,16.8,66,10.40,4.70,27.50,3.00,7.45
2018-06-15 02:00,16.6,65,10.00,5.50,27.50,10.14,8.34
2018-06-15 02:30,16.6,66,10.20,4.40,27.50,2.79,7.11
2018-06-15 03:00,16.6,66,10.20,4.30,27.50,2.73,7.00
2018-06-15 03:30,16.3,68,10.40,4.30,27.50,2.73,7.00
2018-06-15 04:00,16.2,66,9.80,5.50,27.50,10.14,8.34
2018-06-15 04:30,16.2,66,9.80,4.80,27.50,3.07,7.56
2018-06-15 05:00,16.2,66,9.80,4.80,27.50,3.07,7.56
2018-06-15 05:30,16.1,66,9.70,4.80,27.50,3.07,7.56
2018-06-15 06:00,16.3,65,9.70,5.10,55.00,5.95,7.89
2018-06-15 06:30,16.5,64,9.70,5.10,55.00,5.95,7.89
2018-06-15 07:00,17,63,9.90,5.10,55.00,5.95,7.89
2018-06-15 07:30,17.4,62,10.00,4.70,55.00,3.00,7.45
2018-06-15 08:00,17.6,63,10.50,4.40,55.00,2.79,7.11
2018-06-15 08:30,18,61,10.40,4.50,55.00,2.86,7.22
2018-06-15 09:00,18.7,60,10.80,5.50,55.00,10.14,8.34
2018-06-15 09:30,19.5,57,10.80,6.70,55.00,24.76,9.67
2018-06-15 10:00,19.8,56,10.80,6.70,55.00,24.76,9.67
2018-06-15 10:30,19.9,57,11.10,6.70,55.00,24.76,9.67
2018-06-15 11:00,20.4,55,11.10,7.10,55.00,30.31,10.11
2018-06-15 11:30,20.8,54,11.20,7.10,55.00,30.31,10.11
2018-06-15 12:00,21.6,49,10.40,5.30,55.00,8.00,8.11
2018-06-15 12:30,23.3,41,9.30,5.50,55.00,10.14,8.34
2018-06-15 13:00,24,38,8.80,4.40,55.00,2.79,7.11
2018-06-15 13:30,24.2,38,9.00,3.70,55.00,2.34,6.34
2018-06-15 14:00,23.3,40,8.90,3.80,55.00,2.40,6.45
2018-06-15 14:30,23,42,9.40,3.40,55.00,2.16,6.00
2018-06-15 15:00,23.3,44,10.40,4.10,55.00,2.59,6.78
2018-06-15 15:30,24.2,44,11.20,5.50,55.00,10.14,8.34
2018-06-15 16:00,24.6,41,10.50,5.30,55.00,8.00,8.11
2018-06-15 16:30,24.5,41,10.40,4.50,55.00,2.86,7.22
2018-06-15 17:00,24.3,40,9.80,5.50,55.00,10.14,8.34
2018-06-15 17:30,23.8,40,9.40,4.80,55.00,3.07,7.56
2018-06-15 18:00,23.6,41,9.60,4.10,55.00,2.59,6.78
2018-06-15 18:30,22.9,47,11.00,5.20,55.00,6.96,8.00
2018-06-15 19:00,22.3,49,11.10,6.60,55.00,23.42,9.56
2018-06-15 19:30,21.9,51,11.30,7.10,55.00,30.31,10.11
2018-06-15 20:00,21.8,48,10.30,7.20,55.00,31.75,10.22
2018-06-15 20:30,21.3,48,9.80,4.20,55.00,2.66,6.89
2018-06-15 21:00,20.2,58,11.70,4.80,55.00,3.07,7.56
2018-06-15 21:30,19.7,59,11.50,8.20,55.00,47.32,11.33
2018-06-15 22:00,19.2,59,11.00,7.20,27.50,31.75,10.22
2018-06-15 22:30,18.8,61,11.10,6.60,27.50,23.42,9.56
2018-06-15 23:00,18.4,63,11.20,7.10,27.50,30.31,10.11
2018-06-15 23:30,17.8,66,11.40,5.30,27.50,8.00,8.11
2018-06-16 00:00,17.2,71,11.90,6.80,27.50,26.11,9.78
2018-06-16 00:30,16.8,72,11.70,6.30,27.50,19.55,9.22
2018-06-16 01:00,16.2,74,11.60,8.20,27.50,47.32,11.33
2018-06-16 01:30,16.1,75,11.70,8.00,27.50,44.04,11.11
2018-06-16 02:00,15.9,75,11.50,8.20,27.50,47.32,11.33
2018-06-16 02:30,15.7,74,11.10,7.20,27.50,31.75,10.22
2018-06-16 03:00,15.5,75,11.10,7.10,27.50,30.31,10.11
2018-06-16 03:30,15.2,76,11.00,7.10,27.50,30.31,10.11
2018-06-16 04:00,14.8,78,11.00,6.60,27.50,23.42,9.56
2018-06-16 04:30,14.6,79,11.00,6.60,27.50,23.42,9.56
2018-06-16 05:00,14.6,78,10.80,6.60,27.50,23.42,9.56
2018-06-16 05:30,14.9,78,11.10,6.70,27.50,24.76,9.67
2018-06-16 06:00,15.1,77,11.10,7.10,55.00,30.31,10.11
2018-06-16 06:30,15.4,76,11.20,7.10,55.00,30.31,10.11
2018-06-16 07:00,17,70,11.50,5.30,55.00,8.00,8.11
2018-06-16 07:30,18.7,60,10.80,7.20,55.00,31.75,10.22
2018-06-16 08:00,20.1,53,10.20,6.70,55.00,24.76,9.67
2018-06-16 08:30,21.2,49,10.10,4.30,55.00,2.73,7.00
2018-06-16 09:00,22.5,43,9.30,4.80,55.00,3.07,7.56
2018-06-16 09:30,23,45,10.40,4.40,55.00,2.79,7.11
2018-06-16 10:00,24.1,43,10.70,5.50,55.00,10.14,8.34
2018-06-16 10:30,24.7,42,10.90,6.50,55.00,22.11,9.45
2018-06-16 11:00,24.9,41,10.70,5.80,55.00,13.51,8.67
2018-06-16 11:30,25.9,39,10.90,6.50,55.00,22.11,9.45
2018-06-16 12:00,26.3,38,10.90,5.80,55.00,13.51,8.67
2018-06-16 12:30,26.5,38,11.00,5.80,55.00,13.51,8.67
2018-06-16 13:00,26.6,37,10.70,6.60,55.00,23.42,9.56
2018-06-16 13:30,26.7,38,11.20,6.50,55.00,22.11,9.45
2018-06-16 14:00,26.4,39,11.30,5.30,55.00,8.00,8.11
2018-06-16 14:30,26.7,38,11.20,7.20,55.00,31.75,10.22
2018-06-16 15:00,25.5,40,10.90,5.30,55.00,8.00,8.11
2018-06-16 15:30,25.7,41,11.50,5.80,55.00,13.51,8.67
2018-06-16 16:00,26.2,40,11.50,7.20,55.00,31.75,10.22
2018-06-16 16:30,25.5,41,11.30,7.20,55.00,31.75,10.22
2018-06-16 17:00,25.2,42,11.40,7.20,55.00,31.75,10.22
2018-06-16 17:30,25.1,42,11.30,6.80,55.00,26.11,9.78
2018-06-16 18:00,25.2,40,10.60,7.20,55.00,31.75,10.22
2018-06-16 18:30,25,41,10.80,5.00,55.00,4.95,7.78
2018-06-16 19:00,24.3,42,10.60,6.70,55.00,24.76,9.67
2018-06-16 19:30,23.5,44,10.50,5.00,55.00,4.95,7.78
2018-06-16 20:00,23,45,10.40,4.50,55.00,2.86,7.22
2018-06-16 20:30,21.9,49,10.70,5.50,55.00,10.14,8.34
2018-06-16 21:00,21.2,52,11.00,6.50,55.00,22.11,9.45
2018-06-16 21:30,20.5,56,11.40,6.60,55.00,23.42,9.56
2018-06-16 22:00,20.2,59,11.90,6.80,27.50,26.11,9.78
2018-06-16 22:30,19.7,61,12.00,6.30,27.50,19.55,9.22
2018-06-16 23:00,19.2,64,12.20,8.20,27.50,47.32,11.33
2018-06-16 23:30,18.9,66,12.40,7.70,27.50,39.27,10.78
2018-06-17 00:00,18.6,67,12.40,7.20,27.50,31.75,10.22
2018-06-17 00:30,18.4,67,12.20,7.20,27.50,31.75,10.22
2018-06-17 01:00,18.1,69,12.30,7.70,27.50,39.27,10.78
2018-06-17 01:30,17.7,72,12.60,6.30,27.50,19.55,9.22
2018-06-17 02:00,17.4,74,12.70,8.40,27.50,50.69,11.55
2018-06-17 02:30,17.3,72,12.20,7.70,27.50,39.27,10.78
2018-06-17 03:00,17.2,74,12.50,7.70,27.50,39.27,10.78
2018-06-17 03:30,16.8,76,12.50,7.70,27.50,39.27,10.78
2018-06-17 04:00,16.3,77,12.30,7.70,27.50,39.27,10.78
2018-06-17 04:30,16.1,77,12.10,6.30,27.50,19.55,9.22
2018-06-17 05:00,15.9,79,12.30,7.50,27.50,36.20,10.56
2018-06-17 05:30,15.8,79,12.20,6.30,27.50,19.55,9.22
2018-06-17 06:00,15.8,79,12.20,7.70,55.00,39.27,10.78
2018-06-17 06:30,15.8,79,12.20,7.70,55.00,39.27,10.78
2018-06-17 07:00,15.9,78,12.10,7.70,55.00,39.27,10.78
2018-06-17 07:30,16.4,75,12.00,7.50,55.00,36.20,10.56
2018-06-17 08:00,18.3,68,12.30,8.20,55.00,47.32,11.33
2018-06-17 08:30,20,61,12.30,6.30,55.00,19.55,9.22
2018-06-17 09:00,21.4,55,12.00,6.30,55.00,19.55,9.22
2018-06-17 09:30,22.9,51,12.20,8.20,55.00,47.32,11.33
2018-06-17 10:00,23.6,49,12.30,7.70,55.00,39.27,10.78
2018-06-17 10:30,24.3,49,12.90,6.30,55.00,19.55,9.22
2018-06-17 11:00,24.6,49,13.20,8.20,55.00,47.32,11.33
2018-06-17 11:30,24.2,50,13.10,8.50,55.00,52.41,11.67
2018-06-17 12:00,24.6,46,12.20,8.10,55.00,45.67,11.22
2018-06-17 12:30,24.3,46,11.90,7.70,55.00,39.27,10.78
2018-06-17 13:00,24.7,41,10.60,6.30,55.00,19.55,9.22
2018-06-17 13:30,24.8,42,11.00,5.00,55.00,4.95,7.78
2018-06-17 14:00,24.8,43,11.40,6.60,55.00,23.42,9.56
2018-06-17 14:30,25,43,11.60,6.80,55.00,26.11,9.78
2018-06-17 15:00,24.9,44,11.80,8.00,55.00,44.04,11.11
2018-06-17 15:30,24.8,46,12.40,8.00,55.00,44.04,11.11
2018-06-17 16:00,24.7,48,13.00,7.20,55.00,31.75,10.22
2018-06-17 16:30,24.8,48,13.00,8.00,55.00,44.04,11.11
2018-06-17 17:00,25,47,12.90,8.00,55.00,44.04,11.11
2018-06-17 17:30,25.3,48,13.50,8.20,55.00,47.32,11.33
2018-06-17 18:00,23.8,54,13.90,8.30,55.00,49.00,11.44
2018-06-17 18:30,23.1,57,14.10,8.60,55.00,54.15,11.78
2018-06-17 19:00,21.8,65,14.90,8.60,55.00,54.15,11.78
2018-06-17 19:30,21.4,68,15.30,8.00,55.00,44.04,11.11
2018-06-17 20:00,21.3,69,15.40,8.20,55.00,47.32,11.33
2018-06-17 20:30,21,70,15.30,8.30,55.00,49.00,11.44
2018-06-17 21:00,20.8,67,14.40,8.20,55.00,47.32,11.33
2018-06-17 21:30,20.7,68,14.60,8.60,55.00,54.15,11.78
2018-06-17 22:00,20.3,70,14.60,9.00,27.50,55.00,12.22
2018-06-17 22:30,19.8,74,15.00,9.00,27.50,55.00,12.22
2018-06-17 23:00,19.2,78,15.30,9.20,27.50,55.00,12.44
2018-06-17 23:30,18.5,80,15.00,8.20,27.50,47.32,11.33
2018-06-18 00:00,18,83,15.10,9.20,27.50,55.00,12.44
2018-06-18 00:30,17.7,84,15.00,8.50,27.50,52.41,11.67
2018-06-18 01:00,17.3,85,14.80,9.20,27.50,55.00,12.44
2018-06-18 01:30,17.1,88,15.10,9.00,27.50,55.00,12.22
2018-06-18 02:00,16.8,89,15.00,8.50,27.50,52.41,11.67
2018-06-18 02:30,16.4,89,14.60,9.20,27.50,55.00,12.44
2018-06-18 03:00,16.1,90,14.50,9.00,27.50,55.00,12.22
2018-06-18 03:30,15.6,90,14.00,8.50,27.50,52.41,11.67
2018-06-18 04:00,15.5,91,14.00,8.30,27.50,49.00,11.44
2018-06-18 04:30,15.3,91,13.80,8.30,27.50,49.00,11.44
2018-06-18 05:00,15.5,90,13.90,8.60,27.50,54.15,11.78
2018-06-18 05:30,15.8,88,13.80,8.60,27.50,54.15,11.78
2018-06-18 06:00,17.1,82,14.00,8.60,55.00,54.15,11.78
2018-06-18 06:30,18.4,77,14.30,8.30,55.00,49.00,11.44
2018-06-18 07:00,19,74,14.30,8.60,55.00,54.15,11.78
2018-06-18 07:30,20.1,70,14.50,8.60,55.00,54.15,11.78
2018-06-18 08:00,21.7,64,14.60,8.50,55.00,52.41,11.67
2018-06-18 08:30,23.3,55,13.80,9.00,55.00,55.00,12.22
2018-06-18 09:00,24.4,50,13.30,8.60,55.00,54.15,11.78
2018-06-18 09:30,25.7,45,12.90,7.50,55.00,36.20,10.56
2018-06-18 10:00,26.6,38,11.10,8.20,55.00,47.32,11.33
2018-06-18 10:30,27,36,10.70,7.10,55.00,30.31,10.11
2018-06-18 11:00,27.6,34,10.30,6.50,55.00,22.11,9.45
2018-06-18 11:30,27.8,33,10.10,4.20,55.00,2.66,6.89
2018-06-18 12:00,28,33,10.20,4.80,55.00,3.07,7.56
2018-06-18 12:30,28.7,34,11.30,4.30,55.00,2.73,7.00
2018-06-18 13:00,27.9,36,11.50,7.20,55.00,31.75,10.22
2018-06-18 13:30,27.3,37,11.30,7.20,55.00,31.75,10.22
2018-06-18 14:00,27.3,38,11.70,7.20,55.00,31.75,10.22
2018-06-18 14:30,27.3,38,11.70,8.20,55.00,47.32,11.33
2018-06-18 15:00,26.5,39,11.40,8.20,55.00,47.32,11.33
2018-06-18 15:30,24.9,49,13.50,6.80,55.00,26.11,9.78
2018-06-18 16:00,25.3,51,14.40,8.30,55.00,49.00,11.44
2018-06-18 16:30,25.4,51,14.50,8.60,55.00,54.15,11.78
2018-06-18 17:00,26,48,14.10,8.50,55.00,52.41,11.67
2018-06-18 17:30,26.4,47,14.20,8.60,55.00,54.15,11.78
2018-06-18 18:00,26.6,46,14.00,8.50,55.00,52.41,11.67
2018-06-18 18:30,26.9,44,13.60,8.30,55.00,49.00,11.44
2018-06-18 19:00,26.3,44,13.10,8.00,55.00,44.04,11.11
2018-06-18 19:30,25.7,46,13.20,8.10,55.00,45.67,11.22
2018-06-18 20:00,25.2,46,12.80,8.50,55.00,52.41,11.67
2018-06-18 20:30,24.3,49,12.90,7.70,55.00,39.27,10.78
2018-06-18 21:00,23.3,53,13.20,8.20,55.00,47.32,11.33
2018-06-18 21:30,22.6,57,13.70,8.50,55.00,52.41,11.67
2018-06-18 22:00,22.2,61,14.30,8.40,27.50,50.69,11.55
2018-06-18 22:30,22.2,58,13.50,8.60,27.50,54.15,11.78
2018-06-18 23:00,21.7,53,11.70,8.30,27.50,49.00,11.44
2018-06-18 23:30,21.1,50,10.30,8.20,27.50,47.32,11.33
2018-06-19 00:00,20,55,10.70,4.20,27.50,2.66,6.89
2018-06-19 00:30,19.5,61,11.80,6.50,27.50,22.11,9.45
2018-06-19 01:00,19,70,13.40,8.00,27.50,44.04,11.11
2018-06-19 01:30,18.2,73,13.30,8.00,27.50,44.04,11.11
2018-06-19 02:00,17.5,73,12.60,7.50,27.50,36.20,10.56
2018-06-19 02:30,16.7,78,12.80,8.40,27.50,50.69,11.55
2018-06-19 03:00,16.3,78,12.50,7.70,27.50,39.27,10.78
2018-06-19 03:30,15.9,78,12.10,7.70,27.50,39.27,10.78
2018-06-19 04:00,15.7,78,11.90,7.50,27.50,36.20,10.56
2018-06-19 04:30,15.3,80,11.90,6.30,27.50,19.55,9.22
2018-06-19 05:00,15.2,79,11.60,6.30,27.50,19.55,9.22
2018-06-19 05:30,16.1,77,12.10,8.00,27.50,44.04,11.11
2018-06-19 06:00,17.3,71,12.00,7.50,55.00,36.20,10.56
2018-06-19 06:30,18.6,67,12.40,8.20,55.00,47.32,11.33
2018-06-19 07:00,19.1,62,11.60,7.20,55.00,31.75,10.22
2018-06-19 07:30,20.3,56,11.20,8.00,55.00,44.04,11.11
2018-06-19 08:00,21.4,53,11.40,5.30,55.00,8.00,8.11
2018-06-19 08:30,22.9,48,11.30,6.80,55.00,26.11,9.78
2018-06-19 09:00,23.8,43,10.50,7.20,55.00,31.75,10.22
2018-06-19 09:30,25,41,10.80,4.50,55.00,2.86,7.22
2018-06-19 10:00,25.9,39,10.90,6.70,55.00,24.76,9.67
2018-06-19 10:30,26.1,39,11.10,5.80,55.00,13.51,8.67
2018-06-19 11:00,27,37,11.10,7.10,55.00,30.31,10.11
2018-06-19 11:30,27.1,36,10.70,7.10,55.00,30.31,10.11
2018-06-19 12:00,27.4,36,11.00,6.50,55.00,22.11,9.45
2018-06-19 12:30,27.4,36,11.00,6.60,55.00,23.42,9.56
2018-06-19 13:00,27.7,36,11.30,6.60,55.00,23.42,9.56
2018-06-19 13:30,27.1,37,11.20,7.20,55.00,31.75,10.22
2018-06-19 14:00,27.3,36,10.90,5.30,55.00,8.00,8.11
2018-06-19 14:30,27.4,36,11.00,5.80,55.00,13.51,8.67
2018-06-19 15:00,28.3,35,11.40,6.60,55.00,23.42,9.56
2018-06-19 15:30,27.9,36,11.50,6.80,55.00,26.11,9.78
2018-06-19 16:00,28.1,36,11.60,7.20,55.00,31.75,10.22
2018-06-19 16:30,28.8,34,11.40,8.00,55.00,44.04,11.11
2018-06-19 17:00,28.7,34,11.30,6.80,55.00,26.11,9.78
2018-06-19 17:30,28.4,35,11.50,7.20,55.00,31.75,10.22
2018-06-19 18:00,28.3,35,11.40,7.20,55.00,31.75,10.22
2018-06-19 18:30,27.8,35,10.90,6.80,55.00,26.11,9.78
2018-06-19 19:00,27.1,37,11.20,5.80,55.00,13.51,8.67
2018-06-19 19:30,26.2,40,11.50,5.30,55.00,8.00,8.11
2018-06-19 20:00,25.3,44,12.20,7.20,55.00,31.75,10.22
2018-06-19 20:30,24.2,48,12.50,7.70,55.00,39.27,10.78
2018-06-19 21:00,23.2,51,12.50,7.70,55.00,39.27,10.78
2018-06-19 21:30,22.7,54,12.90,7.70,55.00,39.27,10.78
2018-06-19 22:00,21.9,56,12.70,8.20,27.50,47.32,11.33
2018-06-19 22:30,21.3,59,13.00,7.70,27.50,39.27,10.78
2018-06-19 23:00,20.9,61,13.10,8.00,27.50,44.04,11.11
2018-06-19 23:30,20.4,63,13.10,8.10,27.50,45.67,11.22
2018-06-20 00:00,19.8,66,13.30,8.10,27.50,45.67,11.22
2018-06-20 00:30,19.1,69,13.30,7.50,27.50,36.20,10.56
2018-06-20 01:00,18.7,71,13.30,7.50,27.50,36.20,10.56
2018-06-20 01:30,18.5,71,13.10,7.50,27.50,36.20,10.56
2018-06-20 02:00,18.2,72,13.10,8.10,27.50,45.67,11.22
2018-06-20 02:30,17.8,74,13.10,8.10,27.50,45.67,11.22
2018-06-20 03:00,17.5,76,13.20,8.10,27.50,45.67,11.22
2018-06-20 03:30,17,78,13.10,8.50,27.50,52.41,11.67
2018-06-20 04:00,16.6,80,13.10,8.10,27.50,45.67,11.22
2018-06-20 04:30,16.1,83,13.20,8.10,27.50,45.67,11.22
2018-06-20 05:00,16.1,82,13.00,8.50,27.50,52.41,11.67
2018-06-20 05:30,16.8,79,13.10,8.00,27.50,44.04,11.11
2018-06-20 06:00,17.9,74,13.20,8.10,55.00,45.67,11.22
2018-06-20 06:30,18.7,72,13.50,8.50,55.00,52.41,11.67
2018-06-20 07:00,20,66,13.50,8.30,55.00,49.00,11.44
2018-06-20 07:30,20.7,63,13.40,8.30,55.00,49.00,11.44
2018-06-20 08:00,21,62,13.40,8.00,55.00,44.04,11.11
2018-06-20 08:30,21.3,62,13.70,8.00,55.00,44.04,11.11
2018-06-20 09:00,22.6,57,13.70,8.40,55.00,50.69,11.55
2018-06-20 09:30,23.7,52,13.30,8.40,55.00,50.69,11.55
2018-06-20 10:00,24.7,49,13.30,7.50,55.00,36.20,10.56
2018-06-20 10:30,25.1,49,13.60,7.50,55.00,36.20,10.56
2018-06-20 11:00,25.6,49,14.10,8.00,55.00,44.04,11.11
2018-06-20 11:30,26.2,46,13.70,8.60,55.00,54.15,11.78
2018-06-20 12:00,27.1,42,13.10,8.40,55.00,50.69,11.55
2018-06-20 12:30,27.3,42,13.30,8.10,55.00,45.67,11.22
2018-06-20 13:00,27.5,43,13.80,7.50,55.00,36.20,10.56
2018-06-20 13:30,28,42,13.90,8.60,55.00,54.15,11.78
2018-06-20 14:00,28.3,41,13.80,8.60,55.00,54.15,11.78
2018-06-20 14:30,28.8,40,13.90,8.60,55.00,54.15,11.78
2018-06-20 15:00,29.1,39,13.70,8.60,55.00,54.15,11.78
2018-06-20 15:30,29.3,39,13.90,8.40,55.00,50.69,11.55
2018-06-20 16:00,29.6,38,13.80,8.60,55.00,54.15,11.78
2018-06-20 16:30,29.2,40,14.20,8.60,55.00,54.15,11.78
2018-06-20 17:00,29.2,40,14.20,8.50,55.00,52.41,11.67
2018-06-20 17:30,28.9,40,14.00,8.50,55.00,52.41,11.67
2018-06-20 18:00,28.9,40,14.00,8.30,55.00,49.00,11.44
2018-06-20 18:30,28.5,42,14.30,8.30,55.00,49.00,11.44
2018-06-20 19:00,27.7,44,14.30,8.60,55.00,54.15,11.78
2018-06-20 19:30,27,47,14.70,8.60,55.00,54.15,11.78
2018-06-20 20:00,26.2,50,15.00,9.20,55.00,55.00,12.44
2018-06-20 20:30,25.4,52,14.80,9.20,55.00,55.00,12.44
2018-06-20 21:00,24.8,55,15.10,9.00,55.00,55.00,12.22
2018-06-20 21:30,24,59,15.50,8.50,55.00,52.41,11.67
2018-06-20 22:00,23.1,63,15.70,8.70,27.50,55.00,11.89
2018-06-20 22:30,22.5,67,16.10,8.70,27.50,55.00,11.89
2018-06-20 23:00,22,68,15.80,8.90,27.50,55.00,12.11
2018-06-20 23:30,21.3,70,15.60,8.70,27.50,55.00,11.89
2018-06-21 00:00,21,71,15.50,9.40,27.50,55.00,12.66
2018-06-21 00:30,20.5,74,15.70,8.70,27.50,55.00,11.89
2018-06-21 01:00,19.9,77,15.70,8.70,27.50,55.00,11.89
2018-06-21 01:30,19.4,79,15.70,8.70,27.50,55.00,11.89
2018-06-21 02:00,19.2,80,15.70,8.70,27.50,55.00,11.89
2018-06-21 02:30,18.9,81,15.60,8.70,27.50,55.00,11.89
2018-06-21 03:00,18.6,83,15.70,9.40,27.50,55.00,12.66
2018-06-21 03:30,18.2,84,15.50,8.70,27.50,55.00,11.89
2018-06-21 04:00,17.8,86,15.40,8.70,27.50,55.00,11.89
2018-06-21 04:30,17.3,87,15.10,8.30,27.50,49.00,11.44
2018-06-21 05:00,17.2,88,15.20,8.50,27.50,52.41,11.67
2018-06-21 05:30,18,84,15.30,8.70,27.50,55.00,11.89
2018-06-21 06:00,19.2,79,15.50,8.20,55.00,47.32,11.33
2018-06-21 06:30,20.4,74,15.60,8.70,55.00,55.00,11.89
2018-06-21 07:00,21.7,71,16.20,9.40,55.00,55.00,12.66
2018-06-21 07:30,22.1,68,15.90,9.30,55.00,55.00,12.55
2018-06-21 08:00,22.5,67,16.10,9.20,55.00,55.00,12.44
2018-06-21 08:30,23.8,62,16.10,8.90,55.00,55.00,12.11
2018-06-21 09:00,24.7,59,16.20,8.90,55.00,55.00,12.11
2018-06-21 09:30,25.9,56,16.50,9.30,55.00,55.00,12.55
2018-06-21 10:00,27.1,52,16.40,9.60,55.00,55.00,12.89
2018-06-21 10:30,27.8,50,16.40,9.40,55.00,55.00,12.66
2018-06-21 11:00,28.3,49,16.60,9.40,55.00,55.00,12.66
2018-06-21 11:30,29.1,45,16.00,9.70,55.00,55.00,13.00
2018-06-21 12:00,29.8,42,15.50,9.00,55.00,55.00,12.22
2018-06-21 12:30,30.2,41,15.50,8.70,55.00,55.00,11.89
2018-06-21 13:00,30.6,40,15.50,8.70,55.00,55.00,11.89
2018-06-21 13:30,30.4,41,15.70,8.70,55.00,55.00,11.89
2018-06-21 14:00,30.6,40,15.50,8.70,55.00,55.00,11.89
2018-06-21 14:30,30.7,39,15.20,8.70,55.00,55.00,11.89
2018-06-21 15:00,30.6,39,15.10,8.70,55.00,55.00,11.89
2018-06-21 15:30,30.8,40,15.60,8.50,55.00,52.41,11.67
2018-06-21 16:00,30.6,39,15.10,9.40,55.00,55.00,12.66
2018-06-21 16:30,30.2,41,15.50,8.50,55.00,52.41,11.67
2018-06-21 17:00,29.9,41,15.20,8.70,55.00,55.00,11.89
2018-06-21 17:30,29.1,42,14.90,8.70,55.00,55.00,11.89
2018-06-21 18:00,28,45,15.00,8.00,55.00,44.04,11.11
2018-06-21 18:30,27.2,47,14.90,9.20,55.00,55.00,12.44
2018-06-21 19:00,26.6,49,15.00,8.00,55.00,44.04,11.11
2018-06-21 19:30,26,47,13.80,9.20,55.00,55.00,12.44
2018-06-21 20:00,25.6,46,13.10,8.60,55.00,54.15,11.78
2018-06-21 20:30,25.2,47,13.10,8.10,55.00,45.67,11.22
2018-06-21 21:00,24.8,48,13.00,8.10,55.00,45.67,11.22
2018-06-21 21:30,24.6,49,13.20,8.00,55.00,44.04,11.11
2018-06-21 22:00,24.4,50,13.30,8.50,27.50,52.41,11.67
2018-06-21 22:30,24.4,49,13.00,7.50,27.50,36.20,10.56
2018-06-21 23:00,24.3,51,13.50,8.00,27.50,44.04,11.11
2018-06-21 23:30,22,66,15.40,8.30,27.50,49.00,11.44
2018-06-22 00:00,20.9,74,16.10,8.30,27.50,49.00,11.44
2018-06-22 00:30,19.9,82,16.70,8.90,27.50,55.00,12.11
2018-06-22 01:00,19.3,87,17.10,9.20,27.50,55.00,12.44
2018-06-22 01:30,19.3,87,17.10,9.40,27.50,55.00,12.66
2018-06-22 02:00,19,88,17.00,9.40,27.50,55.00,12.66
2018-06-22 02:30,18.7,88,16.70,9.90,27.50,55.00,13.22
2018-06-22 03:00,18.5,89,16.70,9.20,27.50,55.00,12.44
2018-06-22 03:30,18.5,91,17.00,9.20,27.50,55.00,12.44
2018-06-22 04:00,18.5,90,16.80,9.90,27.50,55.00,13.22
2018-06-22 04:30,18.5,89,16.70,10.10,27.50,55.00,13.44
2018-06-22 05:00,18.4,90,16.70,9.20,27.50,55.00,12.44
2018-06-22 05:30,18.1,94,17.10,9.20,27.50,55.00,12.44
2018-06-22 06:00,17.9,94,16.90,9.40,55.00,55.00,12.66
2018-06-22 06:30,17.5,93,16.40,9.60,55.00,55.00,12.89
2018-06-22 07:00,16.2,93,15.10,9.40,55.00,55.00,12.66
2018-06-22 07:30,15.8,93,14.70,8.50,55.00,52.41,11.67
2018-06-22 08:00,16.1,92,14.80,9.20,55.00,55.00,12.44
2018-06-22 08:30,16.1,89,14.30,9.00,55.00,55.00,12.22
2018-06-22 09:00,16.3,87,14.10,8.60,55.00,54.15,11.78
2018-06-22 09:30,15.3,89,13.50,8.60,55.00,54.15,11.78
2018-06-22 10:00,14.8,90,13.20,8.30,55.00,49.00,11.44
2018-06-22 10:30,14.1,89,12.30,8.50,55.00,52.41,11.67
2018-06-22 11:00,13.4,88,11.50,6.30,55.00,19.55,9.22
2018-06-22 11:30,12.7,88,10.80,7.20,55.00,31.75,10.22
2018-06-22 12:00,12.7,88,10.80,6.70,55.00,24.76,9.67
2018-06-22 12:30,13,86,10.70,6.70,55.00,24.76,9.67
2018-06-22 13:00,13.7,83,10.90,6.50,55.00,22.11,9.45
2018-06-22 13:30,15.2,76,11.00,5.80,55.00,13.51,8.67
2018-06-22 14:00,15.6,72,10.60,6.60,55.00,23.42,9.56
2018-06-22 14:30,15.3,71,10.10,5.00,55.00,4.95,7.78
2018-06-22 15:00,15.2,71,10.00,4.80,55.00,3.07,7.56
2018-06-22 15:30,15.4,69,9.70,4.40,55.00,2.79,7.11
2018-06-22 16:00,15.3,68,9.40,5.10,55.00,5.95,7.89
2018-06-22 16:30,14.8,71,9.60,4.10,55.00,2.59,6.78
2018-06-22 17:00,14.6,74,10.00,5.20,55.00,6.96,8.00
2018-06-22 17:30,14.6,73,9.80,4.40,55.00,2.79,7.11
2018-06-22 18:00,14.7,71,9.50,4.80,55.00,3.07,7.56
2018-06-22 18:30,15,69,9.40,3.80,55.00,2.40,6.45
2018-06-22 19:00,14.8,70,9.40,4.10,55.00,2.59,6.78
2018-06-22 19:30,14.6,71,9.40,4.10,55.00,2.59,6.78
2018-06-22 20:00,14.3,72,9.30,4.10,55.00,2.59,6.78
2018-06-22 20:30,14,74,9.40,4.40,55.00,2.79,7.11
2018-06-22 21:00,13.6,76,9.40,4.10,55.00,2.59,6.78
2018-06-22 21:30,13.1,79,9.50,4.10,55.00,2.59,6.78
2018-06-22 22:00,12.7,83,9.90,3.80,27.50,2.40,6.45
2018-06-22 22:30,12.5,85,10.00,4.70,27.50,3.00,7.45
2018-06-22 23:00,12.1,88,10.20,4.40,27.50,2.79,7.11
2018-06-22 23:30,11.8,89,10.00,4.30,27.50,2.73,7.00
2018-06-23 00:00,11.5,90,9.90,4.40,27.50,2.79,7.11
2018-06-23 00:30,11.3,90,9.70,4.70,27.50,3.00,7.45
2018-06-23 01:00,11,91,9.60,5.10,27.50,5.95,7.89
2018-06-23 01:30,10.7,92,9.50,5.20,27.50,6.96,8.00
2018-06-23 02:00,10.5,93,9.40,3.80,27.50,2.40,6.45
2018-06-23 02:30,10.5,94,9.60,4.10,27.50,2.59,6.78
2018-06-23 03:00,10.5,93,9.40,5.20,27.50,6.96,8.00
2018-06-23 03:30,10.6,93,9.50,4.10,27.50,2.59,6.78
2018-06-23 04:00,10.4,93,9.30,3.80,27.50,2.40,6.45
2018-06-23 04:30,10.1,94,9.20,4.40,27.50,2.79,7.11
2018-06-23 05:00,10,95,9.20,3.70,27.50,2.34,6.34
2018-06-23 05:30,10.2,94,9.30,3.70,27.50,2.34,6.34
2018-06-23 06:00,10.5,92,9.30,4.40,55.00,2.79,7.11
2018-06-23 06:30,10.7,91,9.30,4.40,55.00,2.79,7.11
2018-06-23 07:00,11.2,88,9.30,4.40,55.00,2.79,7.11
2018-06-23 07:30,11.7,85,9.30,4.40,55.00,2.79,7.11
2018-06-23 08:00,12.1,81,8.90,4.40,55.00,2.79,7.11
2018-06-23 08:30,13,77,9.10,3.40,55.00,2.16,6.00
2018-06-23 09:00,14.4,72,9.40,3.30,55.00,2.10,5.89
2018-06-23 09:30,15.3,69,9.60,4.10,55.00,2.59,6.78
2018-06-23 10:00,16.3,63,9.20,5.20,55.00,6.96,8.00
2018-06-23 10:30,17.2,56,8.30,3.70,55.00,2.34,6.34
2018-06-23 11:00,18.1,52,8.10,3.10,55.00,1.99,5.67
2018-06-23 11:30,18.8,45,6.60,3.10,55.00,1.99,5.67
2018-06-23 12:00,19.6,42,6.30,2.30,55.00,1.56,4.78
2018-06-23 12:30,20.3,38,5.50,2.00,55.00,1.41,4.45
2018-06-23 13:00,20.4,37,5.20,1.30,55.00,1.09,3.67
2018-06-23 13:30,20.7,35,4.70,0.60,55.00,0.82,2.90
2018-06-23 14:00,21.2,36,5.50,0.20,55.00,0.68,2.45
2018-06-23 14:30,21.4,37,6.10,1.30,55.00,1.09,3.67
2018-06-23 15:00,20.7,36,5.10,1.80,55.00,1.32,4.23
2018-06-23 15:30,21.6,36,5.90,1.00,55.00,0.97,3.34
2018-06-23 16:00,21.2,36,5.50,0.30,55.00,0.71,2.56
2018-06-23 16:30,21.7,36,6.00,1.30,55.00,1.09,3.67
2018-06-23 17:00,21.8,35,5.70,1.60,55.00,1.22,4.01
2018-06-23 17:30,22,36,6.20,1.60,55.00,1.22,4.01
2018-06-23 18:00,21.4,36,5.70,1.90,55.00,1.36,4.34
2018-06-23 18:30,20.7,38,5.90,1.60,55.00,1.22,4.01
2018-06-23 19:00,20.3,41,6.60,0.30,55.00,0.71,2.56
2018-06-23 19:30,19.5,45,7.30,2.30,55.00,1.56,4.78
2018-06-23 20:00,18.9,47,7.30,2.50,55.00,1.66,5.01
2018-06-23 20:30,18.4,49,7.50,2.50,55.00,1.66,5.01
2018-06-23 21:00,18,52,8.00,2.30,55.00,1.56,4.78
2018-06-23 21:30,17.3,59,9.20,3.60,55.00,2.28,6.23
2018-06-23 22:00,16.8,61,9.20,3.70,27.50,2.34,6.34
2018-06-23 22:30,16.3,65,9.70,3.70,27.50,2.34,6.34
2018-06-23 23:00,15.6,70,10.10,5.10,27.50,5.95,7.89
2018-06-23 23:30,15.2,70,9.80,4.80,27.50,3.07,7.56
2018-06-24 00:00,15.1,73,10.30,4.80,27.50,3.07,7.56
2018-06-24 00:30,14.6,80,11.20,4.20,27.50,2.66,6.89
2018-06-24 01:00,14.4,79,10.80,5.30,27.50,8.00,8.11
2018-06-24 01:30,14,80,10.60,6.70,27.50,24.76,9.67
2018-06-24 02:00,13.7,83,10.90,5.00,27.50,4.95,7.78
2018-06-24 02:30,13.7,82,10.70,5.80,27.50,13.51,8.67
2018-06-24 03:00,13.2,82,10.20,6.50,27.50,22.11,9.45
2018-06-24 03:30,12.9,83,10.10,4.30,27.50,2.73,7.00
2018-06-24 04:00,12.9,83,10.10,4.80,27.50,3.07,7.56
2018-06-24 04:30,12.8,84,10.20,4.80,27.50,3.07,7.56
2018-06-24 05:00,12.5,82,9.50,4.30,27.50,2.73,7.00
2018-06-24 05:30,12.6,82,9.60,3.80,27.50,2.40,6.45
2018-06-24 06:00,13,81,9.80,5.20,55.00,6.96,8.00
2018-06-24 06:30,13.4,82,10.40,4.80,55.00,3.07,7.56
2018-06-24 07:00,13.8,82,10.80,5.50,55.00,10.14,8.34
2018-06-24 07:30,14.2,80,10.80,6.70,55.00,24.76,9.67
2018-06-24 08:00,15.3,76,11.10,6.70,55.00,24.76,9.67
2018-06-24 08:30,16.3,72,11.20,7.10,55.00,30.31,10.11
2018-06-24 09:00,17.1,67,10.90,5.30,55.00,8.00,8.11
2018-06-24 09:30,18.4,57,9.70,5.80,55.00,13.51,8.67
2018-06-24 10:00,19.4,49,8.40,5.10,55.00,5.95,7.89
2018-06-24 10:30,19.9,45,7.60,2.80,55.00,1.82,5.34
2018-06-24 11:00,20,44,7.40,2.10,55.00,1.46,4.56
2018-06-24 11:30,20.9,42,7.50,1.90,55.00,1.36,4.34
2018-06-24 12:00,21.3,42,7.90,2.30,55.00,1.56,4.78
2018-06-24 12:30,21.6,41,7.80,3.70,55.00,2.34,6.34
2018-06-24 13:00,21.9,41,8.10,2.60,55.00,1.71,5.12
2018-06-24 13:30,22.2,40,8.00,3.10,55.00,1.99,5.67
2018-06-24 14:00,22.9,38,7.80,3.60,55.00,2.28,6.23
2018-06-24 14:30,23.4,38,8.30,2.60,55.00,1.71,5.12
2018-06-24 15:00,23.6,38,8.50,3.10,55.00,1.99,5.67
2018-06-24 15:30,22.2,43,9.00,4.20,55.00,2.66,6.89
2018-06-24 16:00,21.6,46,9.50,3.80,55.00,2.40,6.45
2018-06-24 16:30,21.3,45,8.90,3.80,55.00,2.40,6.45
2018-06-24 17:00,20,56,11.00,3.40,55.00,2.16,6.00
2018-06-24 17:30,20.1,54,10.50,6.60,55.00,23.42,9.56
2018-06-24 18:00,19.8,60,11.80,4.50,55.00,2.86,7.22
2018-06-24 18:30,18.8,67,12.50,8.00,55.00,44.04,11.11
2018-06-24 19:00,19,66,12.50,7.70,55.00,39.27,10.78
2018-06-24 19:30,18.4,72,13.30,7.70,55.00,39.27,10.78
2018-06-24 20:00,17.9,74,13.20,7.50,55.00,36.20,10.56
2018-06-24 20:30,17.8,73,12.90,8.50,55.00,52.41,11.67
2018-06-24 21:00,17.3,74,12.60,8.20,55.00,47.32,11.33
2018-06-24 21:30,16.8,75,12.30,8.40,55.00,50.69,11.55
2018-06-24 22:00,16.3,78,12.50,6.30,27.50,19.55,9.22
2018-06-24 22:30,15.6,84,12.90,7.70,27.50,39.27,10.78
2018-06-24 23:00,15.4,82,12.30,8.20,27.50,47.32,11.33
2018-06-24 23:30,15.3,84,12.60,6.30,27.50,19.55,9.22
2018-06-25 00:00,15.2,85,12.70,8.40,27.50,50.69,11.55
2018-06-25 00:30,15.2,85,12.70,7.70,27.50,39.27,10.78
2018-06-25 01:00,14.8,89,13.00,7.70,27.50,39.27,10.78
2018-06-25 01:30,14.6,89,12.80,8.00,27.50,44.04,11.11
2018-06-25 02:00,14.5,90,12.90,7.70,27.50,39.27,10.78
2018-06-25 02:30,14.5,90,12.90,8.20,27.50,47.32,11.33
2018-06-25 03:00,14.1,91,12.70,8.20,27.50,47.32,11.33
2018-06-25 03:30,14.1,91,12.70,7.70,27.50,39.27,10.78
2018-06-25 04:00,14.1,92,12.80,7.70,27.50,39.27,10.78
2018-06-25 04:30,14.1,93,13.00,7.70,27.50,39.27,10.78
2018-06-25 05:00,14.1,94,13.10,8.00,27.50,44.04,11.11
2018-06-25 05:30,14.2,93,13.10,8.10,27.50,45.67,11.22
2018-06-25 06:00,14.2,92,12.90,8.10,55.00,45.67,11.22
2018-06-25 06:30,14,92,12.70,8.20,55.00,47.32,11.33
2018-06-25 07:00,14,92,12.70,7.70,55.00,39.27,10.78
2018-06-25 07:30,14,92,12.70,7.70,55.00,39.27,10.78
2018-06-25 08:00,14,93,12.90,7.70,55.00,39.27,10.78
2018-06-25 08:30,14.2,92,12.90,8.20,55.00,47.32,11.33
2018-06-25 09:00,14.4,92,13.10,8.20,55.00,47.32,11.33
2018-06-25 09:30,14.5,90,12.90,8.10,55.00,45.67,11.22
2018-06-25 10:00,15.1,88,13.10,8.20,55.00,47.32,11.33
2018-06-25 10:30,15.8,83,12.90,8.10,55.00,45.67,11.22
2018-06-25 11:00,16.3,78,12.50,8.20,55.00,47.32,11.33
2018-06-25 11:30,16.8,75,12.30,7.70,55.00,39.27,10.78
2018-06-25 12:00,17.4,71,12.10,6.30,55.00,19.55,9.22
2018-06-25 12:30,17.7,66,11.30,7.50,55.00,36.20,10.56
2018-06-25 13:00,18.3,63,11.10,7.20,55.00,31.75,10.22
2018-06-25 13:30,19,62,11.60,7.10,55.00,30.31,10.11
2018-06-25 14:00,19,61,11.30,8.00,55.00,44.04,11.11
2018-06-25 14:30,19.7,56,10.70,7.20,55.00,31.75,10.22
2018-06-25 15:00,19.8,54,10.20,6.50,55.00,22.11,9.45
2018-06-25 15:30,19.7,52,9.60,4.30,55.00,2.73,7.00
2018-06-25 16:00,20.6,51,10.10,5.20,55.00,6.96,8.00
2018-06-25 16:30,21.1,48,9.70,4.80,55.00,3.07,7.56
2018-06-25 17:00,21.2,46,9.10,5.10,55.00,5.95,7.89
2018-06-25 17:30,20.4,50,9.60,3.30,55.00,2.10,5.89
2018-06-25 18:00,19.9,54,10.30,5.20,55.00,6.96,8.00
2018-06-25 18:30,19,53,9.20,4.20,55.00,2.66,6.89
2018-06-25 19:00,18.4,53,8.60,3.70,55.00,2.34,6.34
2018-06-25 19:30,18,54,8.60,4.10,55.00,2.59,6.78
2018-06-25 20:00,17.7,55,8.50,4.10,55.00,2.59,6.78
2018-06-25 20:30,16.9,59,8.80,4.20,55.00,2.66,6.89
2018-06-25 21:00,16.1,64,9.30,3.70,55.00,2.34,6.34
2018-06-25 21:30,15.5,72,10.50,4.40,55.00,2.79,7.11
2018-06-25 22:00,14.8,81,11.60,4.50,27.50,2.86,7.22
2018-06-25 22:30,14.3,83,11.50,8.00,27.50,44.04,11.11
2018-06-25 23:00,14.1,85,11.60,7.20,27.50,31.75,10.22
2018-06-25 23:30,13.9,84,11.20,8.00,27.50,44.04,11.11
2018-06-26 00:00,13.4,86,11.10,5.30,27.50,8.00,8.11
2018-06-26 00:30,13.1,88,11.20,7.10,27.50,30.31,10.11
2018-06-26 01:00,12.9,88,11.00,5.30,27.50,8.00,8.11
2018-06-26 01:30,12.7,88,10.80,6.60,27.50,23.42,9.56
2018-06-26 02:00,12.3,88,10.40,6.70,27.50,24.76,9.67
2018-06-26 02:30,11.9,89,10.10,5.50,27.50,10.14,8.34
2018-06-26 03:00,11.6,89,9.80,4.80,27.50,3.07,7.56
2018-06-26 03:30,11.4,90,9.80,4.80,27.50,3.07,7.56
2018-06-26 04:00,11.3,91,9.90,4.80,27.50,3.07,7.56
2018-06-26 04:30,11.1,92,9.80,4.70,27.50,3.00,7.45
2018-06-26 05:00,10.9,94,10.00,4.80,27.50,3.07,7.56
2018-06-26 05:30,11,95,10.20,4.40,27.50,2.79,7.11
2018-06-26 06:00,11.3,95,10.50,4.30,55.00,2.73,7.00
2018-06-26 06:30,11.6,94,10.70,4.50,55.00,2.86,7.22
2018-06-26 07:00,12.2,91,10.80,6.50,55.00,22.11,9.45
2018-06-26 07:30,13.8,84,11.10,6.70,55.00,24.76,9.67
2018-06-26 08:00,15.2,76,11.00,7.10,55.00,30.31,10.11
2018-06-26 08:30,16.8,70,11.30,6.60,55.00,23.42,9.56
2018-06-26 09:00,18,65,11.30,7.20,55.00,31.75,10.22
2018-06-26 09:30,19.7,55,10.40,7.20,55.00,31.75,10.22
2018-06-26 10:00,21.1,46,9.00,5.50,55.00,10.14,8.34
2018-06-26 10:30,20.3,48,8.90,3.80,55.00,2.40,6.45
2018-06-26 11:00,21.2,45,8.80,3.40,55.00,2.16,6.00
2018-06-26 11:30,21,45,8.60,3.70,55.00,2.34,6.34
2018-06-26 12:00,21.6,43,8.50,4.10,55.00,2.59,6.78
2018-06-26 12:30,21.8,41,8.00,4.20,55.00,2.66,6.89
2018-06-26 13:00,22.9,41,9.00,3.60,55.00,2.28,6.23
2018-06-26 13:30,23,41,9.00,3.80,55.00,2.40,6.45
2018-06-26 14:00,22.9,42,9.30,3.80,55.00,2.40,6.45
2018-06-26 14:30,23.1,41,9.10,4.40,55.00,2.79,7.11
2018-06-26 15:00,23.8,39,9.00,3.30,55.00,2.10,5.89
2018-06-26 15:30,24.1,39,9.30,3.80,55.00,2.40,6.45
2018-06-26 16:00,22.4,42,8.90,4.40,55.00,2.79,7.11
2018-06-26 16:30,21.5,42,8.00,3.40,55.00,2.16,6.00
2018-06-26 17:00,21,46,8.90,3.60,55.00,2.28,6.23
2018-06-26 17:30,21.5,43,8.40,3.40,55.00,2.16,6.00
2018-06-26 18:00,20.7,47,9.00,2.80,55.00,1.82,5.34
2018-06-26 18:30,20.5,50,9.70,3.80,55.00,2.40,6.45
2018-06-26 19:00,20.4,50,9.60,5.10,55.00,5.95,7.89
2018-06-26 19:30,20.1,50,9.40,5.20,55.00,6.96,8.00
2018-06-26 20:00,19.2,56,10.20,4.10,55.00,2.59,6.78
2018-06-26 20:30,18.3,61,10.60,4.30,55.00,2.73,7.00
2018-06-26 21:00,18,62,10.60,5.00,55.00,4.95,7.78
2018-06-26 21:30,17.4,64,10.50,5.00,55.00,4.95,7.78
2018-06-26 22:00,16.9,66,10.50,4.50,27.50,2.86,7.22
2018-06-26 22:30,16.9,67,10.70,4.50,27.50,2.86,7.22
2018-06-26 23:00,16.9,65,10.30,6.50,27.50,22.11,9.45
2018-06-26 23:30,17.2,63,10.10,4.20,27.50,2.66,6.89
2018-06-27 00:00,16.7,67,10.50,4.80,27.50,3.07,7.56
2018-06-27 00:30,16.2,70,10.70,4.50,27.50,2.86,7.22
2018-06-27 01:00,15.7,74,11.10,6.50,27.50,22.11,9.45
2018-06-27 01:30,15.3,80,11.90,7.10,27.50,30.31,10.11
2018-06-27 02:00,15.1,82,12.00,6.30,27.50,19.55,9.22
2018-06-27 02:30,14.7,84,12.00,8.20,27.50,47.32,11.33
2018-06-27 03:00,14.4,84,11.70,8.20,27.50,47.32,11.33
2018-06-27 03:30,14.3,84,11.60,8.20,27.50,47.32,11.33
2018-06-27 04:00,14.1,84,11.40,8.00,27.50,44.04,11.11
2018-06-27 04:30,13.9,84,11.20,6.80,27.50,26.11,9.78
2018-06-27 05:00,13.8,85,11.30,5.30,27.50,8.00,8.11
2018-06-27 05:30,13.7,86,11.40,7.20,27.50,31.75,10.22
2018-06-27 06:00,14,84,11.30,6.80,55.00,26.11,9.78
2018-06-27 06:30,15.3,79,11.70,7.20,55.00,31.75,10.22
2018-06-27 07:00,16.7,72,11.60,8.20,55.00,47.32,11.33
2018-06-27 07:30,18.2,62,10.80,8.00,55.00,44.04,11.11
2018-06-27 08:00,19.1,57,10.40,6.70,55.00,24.76,9.67
2018-06-27 08:30,18.9,57,10.20,5.50,55.00,10.14,8.34
2018-06-27 09:00,18.8,56,9.80,4.30,55.00,2.73,7.00
2018-06-27 09:30,18.5,61,10.80,4.80,55.00,3.07,7.56
2018-06-27 10:00,18.8,62,11.40,6.70,55.00,24.76,9.67
2018-06-27 10:30,19.9,52,9.80,6.80,55.00,26.11,9.78
2018-06-27 11:00,21.2,46,9.10,4.80,55.00,3.07,7.56
2018-06-27 11:30,21.5,48,10.00,3.30,55.00,2.10,5.89
2018-06-27 12:00,21.5,51,10.90,4.40,55.00,2.79,7.11
2018-06-27 12:30,20.9,50,10.10,5.80,55.00,13.51,8.67
2018-06-27 13:00,17.5,71,12.20,4.80,55.00,3.07,7.56
2018-06-27 13:30,18.4,69,12.60,7.70,55.00,39.27,10.78
2018-06-27 14:00,20.4,57,11.60,8.40,55.00,50.69,11.55
2018-06-27 14:30,22,45,9.50,8.00,55.00,44.04,11.11
2018-06-27 15:00,21.9,43,8.80,3.80,55.00,2.40,6.45
2018-06-27 15:30,22.6,43,9.40,3.70,55.00,2.34,6.34
2018-06-27 16:00,19.6,55,10.30,4.10,55.00,2.59,6.78
2018-06-27 16:30,18.9,60,11.00,4.20,55.00,2.66,6.89
2018-06-27 17:00,20.9,49,9.80,6.60,55.00,23.42,9.56
2018-06-27 17:30,21.4,43,8.30,4.80,55.00,3.07,7.56
2018-06-27 18:00,21.3,43,8.20,3.10,55.00,1.99,5.67
2018-06-27 18:30,21.2,42,7.80,3.40,55.00,2.16,6.00
2018-06-27 19:00,21,44,8.30,2.60,55.00,1.71,5.12
2018-06-27 19:30,20.8,44,8.10,3.10,55.00,1.99,5.67
2018-06-27 20:00,20.2,45,7.90,3.10,55.00,1.99,5.67
2018-06-27 20:30,19.7,48,8.40,3.70,55.00,2.34,6.34
2018-06-27 21:00,19.4,49,8.40,2.80,55.00,1.82,5.34
2018-06-27 21:30,19.1,50,8.40,2.80,55.00,1.82,5.34
2018-06-27 22:00,18.7,54,9.20,2.80,27.50,1.82,5.34
2018-06-27 22:30,18.3,56,9.40,3.70,27.50,2.34,6.34
2018-06-27 23:00,17.9,58,9.50,4.10,27.50,2.59,6.78
2018-06-27 23:30,17.7,58,9.30,3.80,27.50,2.40,6.45
2018-06-28 00:00,17.5,62,10.10,4.40,27.50,2.79,7.11
2018-06-28 00:30,17,65,10.40,4.80,27.50,3.07,7.56
2018-06-28 01:00,16.9,66,10.50,5.50,27.50,10.14,8.34
2018-06-28 01:30,16.7,67,10.50,4.50,27.50,2.86,7.22
2018-06-28 02:00,16.6,68,10.70,4.50,27.50,2.86,7.22
2018-06-28 02:30,16.5,68,10.60,6.50,27.50,22.11,9.45
2018-06-28 03:00,16.5,67,10.40,5.00,27.50,4.95,7.78
2018-06-28 03:30,16.2,71,10.90,5.50,27.50,10.14,8.34
2018-06-28 04:00,15.4,74,10.80,5.80,27.50,13.51,8.67
2018-06-28 04:30,15.1,76,10.90,6.70,27.50,24.76,9.67
2018-06-28 05:00,14.8,77,10.80,5.80,27.50,13.51,8.67
2018-06-28 05:30,14.7,77,10.70,6.70,27.50,24.76,9.67
2018-06-28 06:00,14.9,77,10.90,6.50,55.00,22.11,9.45
2018-06-28 06:30,14.8,80,11.40,5.80,55.00,13.51,8.67
2018-06-28 07:00,14.8,85,12.30,6.80,55.00,26.11,9.78
2018-06-28 07:30,15.1,86,12.80,6.30,55.00,19.55,9.22
2018-06-28 08:00,15.1,86,12.80,7.70,55.00,39.27,10.78
2018-06-28 08:30,15.7,84,13.00,7.70,55.00,39.27,10.78
2018-06-28 09:00,16.1,82,13.00,8.00,55.00,44.04,11.11
2018-06-28 09:30,16.7,79,13.00,8.00,55.00,44.04,11.11
2018-06-28 10:00,17.3,78,13.40,8.00,55.00,44.04,11.11
2018-06-28 10:30,18.3,75,13.80,8.00,55.00,44.04,11.11
2018-06-28 11:00,18.9,72,13.70,8.60,55.00,54.15,11.78
2018-06-28 11:30,19.3,70,13.70,8.40,55.00,50.69,11.55
2018-06-28 12:00,19.8,61,12.10,8.40,55.00,50.69,11.55
2018-06-28 12:30,20.4,56,11.30,7.50,55.00,36.20,10.56
2018-06-28 13:00,21,56,11.90,7.20,55.00,31.75,10.22
2018-06-28 13:30,21.6,52,11.30,6.30,55.00,19.55,9.22
2018-06-28 14:00,21.1,63,13.80,7.20,55.00,31.75,10.22
2018-06-28 14:30,21.8,59,13.40,8.60,55.00,54.15,11.78
2018-06-28 15:00,21.9,54,12.20,8.00,55.00,44.04,11.11
2018-06-28 15:30,21.9,53,11.90,7.70,55.00,39.27,10.78
2018-06-28 16:00,21.8,52,11.50,6.30,55.00,19.55,9.22
2018-06-28 16:30,21.6,53,11.60,7.20,55.00,31.75,10.22
2018-06-28 17:00,21.5,54,11.80,8.00,55.00,44.04,11.11
2018-06-28 17:30,21.4,56,12.30,8.00,55.00,44.04,11.11
2018-06-28 18:00,21.4,62,13.80,6.30,55.00,19.55,9.22
2018-06-28 18:30,21.5,60,13.40,8.60,55.00,54.15,11.78
2018-06-28 19:00,21.2,62,13.60,8.00,55.00,44.04,11.11
2018-06-28 19:30,20.8,64,13.70,8.00,55.00,44.04,11.11
2018-06-28 20:00,20.4,66,13.80,8.40,55.00,50.69,11.55
2018-06-28 20:30,20,68,13.90,8.60,55.00,54.15,11.78
2018-06-28 21:00,19.6,70,14.00,8.60,55.00,54.15,11.78
2018-06-28 21:30,19.3,74,14.50,8.30,55.00,49.00,11.44
2018-06-28 22:00,18.9,77,14.80,8.50,27.50,52.41,11.67
2018-06-28 22:30,18.2,80,14.70,9.00,27.50,55.00,12.22
2018-06-28 23:00,17.5,81,14.20,9.20,27.50,55.00,12.44
2018-06-28 23:30,16.9,82,13.80,8.50,27.50,52.41,11.67
2018-06-29 00:00,16.3,83,13.40,8.60,27.50,54.15,11.78
2018-06-29 00:30,16.1,85,13.60,8.00,27.50,44.04,11.11
2018-06-29 01:00,16,86,13.70,8.00,27.50,44.04,11.11
2018-06-29 01:30,15.8,85,13.30,8.40,27.50,50.69,11.55
2018-06-29 02:00,15.7,86,13.40,7.50,27.50,36.20,10.56
2018-06-29 02:30,15.6,86,13.30,8.00,27.50,44.04,11.11
2018-06-29 03:00,16,86,13.70,7.50,27.50,36.20,10.56
2018-06-29 03:30,15.9,86,13.60,8.40,27.50,50.69,11.55
2018-06-29 04:00,15.8,86,13.50,8.00,27.50,44.04,11.11
2018-06-29 04:30,15.7,86,13.40,8.30,27.50,49.00,11.44
2018-06-29 05:00,15.5,88,13.50,8.00,27.50,44.04,11.11
2018-06-29 05:30,15.6,87,13.40,8.30,27.50,49.00,11.44
2018-06-29 06:00,15.8,87,13.60,8.00,55.00,44.04,11.11
2018-06-29 06:30,16.2,86,13.90,8.00,55.00,44.04,11.11
2018-06-29 07:00,16.4,84,13.70,8.60,55.00,54.15,11.78
2018-06-29 07:30,16.6,83,13.70,8.40,55.00,50.69,11.55
2018-06-29 08:00,17.4,80,13.90,8.40,55.00,50.69,11.55
2018-06-29 08:30,18,81,14.70,8.60,55.00,54.15,11.78
2018-06-29 09:00,18.2,80,14.70,9.20,55.00,55.00,12.44
2018-06-29 09:30,18.6,80,15.10,9.20,55.00,55.00,12.44
2018-06-29 10:00,18.6,81,15.30,8.50,55.00,52.41,11.67
2018-06-29 10:30,18.6,84,15.80,8.20,55.00,47.32,11.33
2018-06-29 11:00,19.4,83,16.40,8.70,55.00,55.00,11.89
2018-06-29 11:30,21.3,75,16.70,9.40,55.00,55.00,12.66
2018-06-29 12:00,22.6,65,15.70,9.20,55.00,55.00,12.44
2018-06-29 12:30,24.1,62,16.40,8.70,55.00,55.00,11.89
2018-06-29 13:00,25.7,57,16.50,9.40,55.00,55.00,12.66
2018-06-29 13:30,27.3,43,13.60,9.60,55.00,55.00,12.89
2018-06-29 14:00,27.9,40,13.10,8.00,55.00,44.04,11.11
2018-06-29 14:30,28.3,39,13.00,8.10,55.00,45.67,11.22
2018-06-29 15:00,27.5,41,13.10,8.00,55.00,44.04,11.11
2018-06-29 15:30,26.9,46,14.30,8.10,55.00,45.67,11.22
2018-06-29 16:00,27.1,48,15.10,8.60,55.00,54.15,11.78
2018-06-29 16:30,27.4,46,14.80,8.50,55.00,52.41,11.67
2018-06-29 17:00,27.1,48,15.10,9.00,55.00,55.00,12.22
2018-06-29 17:30,27,47,14.70,8.50,55.00,52.41,11.67
2018-06-29 18:00,26.8,47,14.50,9.20,55.00,55.00,12.44
2018-06-29 18:30,27,45,14.10,8.50,55.00,52.41,11.67
2018-06-29 19:00,26.3,47,14.10,8.60,55.00,54.15,11.78
2018-06-29 19:30,25.4,50,14.20,8.60,55.00,54.15,11.78
2018-06-29 20:00,24.9,51,14.10,8.50,55.00,52.41,11.67
2018-06-29 20:30,24.2,53,14.00,8.60,55.00,54.15,11.78
2018-06-29 21:00,23.9,52,13.40,8.30,55.00,49.00,11.44
2018-06-29 21:30,23.4,54,13.60,8.00,55.00,44.04,11.11
2018-06-29 22:00,22.5,59,14.10,8.00,27.50,44.04,11.11
2018-06-29 22:30,21.9,61,14.00,8.60,27.50,54.15,11.78
2018-06-29 23:00,21.4,65,14.50,8.30,27.50,49.00,11.44
2018-06-29 23:30,20.8,70,15.10,8.50,27.50,52.41,11.67
2018-06-30 00:00,20.3,73,15.30,8.50,27.50,52.41,11.67
2018-06-30 00:30,20,74,15.20,8.20,27.50,47.32,11.33
2018-06-30 01:00,19.3,77,15.20,8.70,27.50,55.00,11.89
2018-06-30 01:30,19.2,77,15.10,8.70,27.50,55.00,11.89
2018-06-30 02:00,19.2,76,14.90,8.50,27.50,52.41,11.67
2018-06-30 02:30,19.2,76,14.90,8.00,27.50,44.04,11.11
2018-06-30 03:00,19.1,75,14.60,8.00,27.50,44.04,11.11
2018-06-30 03:30,18.9,76,14.60,9.00,27.50,55.00,12.22
2018-06-30 04:00,18.8,75,14.30,9.00,27.50,55.00,12.22
2018-06-30 04:30,18.8,77,14.70,8.60,27.50,54.15,11.78
2018-06-30 05:00,18.7,78,14.80,9.20,27.50,55.00,12.44
2018-06-30 05:30,18.6,80,15.10,9.00,27.50,55.00,12.22
2018-06-30 06:00,18.3,83,15.40,8.50,55.00,52.41,11.67
2018-06-30 06:30,18.7,80,15.20,8.30,55.00,49.00,11.44
2018-06-30 07:00,19.4,78,15.50,8.70,55.00,55.00,11.89
2018-06-30 07:30,19.9,76,15.50,8.70,55.00,55.00,11.89
2018-06-30 08:00,20.8,72,15.60,8.70,55.00,55.00,11.89
2018-06-30 08:30,21.2,69,15.30,9.40,55.00,55.00,12.66
2018-06-30 09:00,21.9,66,15.30,8.20,55.00,47.32,11.33
2018-06-30 09:30,22.7,64,15.50,8.20,55.00,47.32,11.33
2018-06-30 10:00,24,56,14.70,8.70,55.00,55.00,11.89
2018-06-30 10:30,24.6,57,15.50,9.20,55.00,55.00,12.44
2018-06-30 11:00,25.3,54,15.30,8.70,55.00,55.00,11.89
2018-06-30 11:30,26.2,50,15.00,8.20,55.00,47.32,11.33
2018-06-30 12:00,27.8,45,14.80,9.20,55.00,55.00,12.44
2018-06-30 12:30,28.7,46,15.90,9.00,55.00,55.00,12.22
2018-06-30 13:00,29,45,15.90,9.20,55.00,55.00,12.44
2018-06-30 13:30,29.1,42,14.90,9.20,55.00,55.00,12.44
2018-06-30 14:00,30,40,14.90,8.00,55.00,44.04,11.11
2018-06-30 14:30,29.6,40,14.60,8.00,55.00,44.04,11.11
2018-06-30 15:00,29.5,39,14.10,9.00,55.00,55.00,12.22
2018-06-30 15:30,29.8,40,14.80,8.60,55.00,54.15,11.78
2018-06-30 16:00,29.4,38,13.60,9.00,55.00,55.00,12.22
2018-06-30 16:30,29.3,38,13.50,8.00,55.00,44.04,11.11
2018-06-30 17:00,29.4,38,13.60,8.30,55.00,49.00,11.44
2018-06-30 17:30,28.2,43,14.40,8.00,55.00,44.04,11.11
2018-06-30 18:00,24.6,61,16.60,8.60,55.00,54.15,11.78
2018-06-30 18:30,23.1,68,16.90,9.70,55.00,55.00,13.00
2018-06-30 19:00,22.1,72,16.80,9.60,55.00,55.00,12.89
2018-06-30 19:30,21.4,74,16.60,10.10,55.00,55.00,13.44
2018-06-30 20:00,21,76,16.60,9.70,55.00,55.00,13.00
2018-06-30 20:30,20.8,76,16.40,9.70,55.00,55.00,13.00
2018-06-30 21:00,20.8,75,16.20,9.40,55.00,55.00,12.66
2018-06-30 21:30,19.8,79,16.10,9.30,55.00,55.00,12.55
2018-06-30 22:00,19.2,81,15.90,8.90,27.50,55.00,12.11
2018-06-30 22:30,19,82,15.90,9.20,27.50,55.00,12.44
2018-06-30 23:00,19.1,78,15.20,9.20,27.50,55.00,12.44
2018-06-30 23:30,18.9,72,13.70,8.70,27.50,55.00,11.89
